PWD /home/sil/Documents/school/dc/ResProtocols
INPUT /etc/texmf/web2c/texmf.cnf
INPUT /usr/share/texmf/web2c/texmf.cnf
INPUT /usr/share/texlive/texmf-dist/web2c/texmf.cnf
INPUT /var/lib/texmf/web2c/pdftex/pdflatex.fmt
INPUT resProtocol.tex
OUTPUT build/resProtocol.log
INPUT /usr/share/texlive/texmf-dist/tex/latex/base/article.cls
INPUT /usr/share/texlive/texmf-dist/tex/latex/base/article.cls
INPUT /usr/share/texlive/texmf-dist/tex/latex/base/size10.clo
INPUT /usr/share/texlive/texmf-dist/tex/latex/base/size10.clo
INPUT /usr/share/texlive/texmf-dist/tex/generic/babel/babel.sty
INPUT /usr/share/texlive/texmf-dist/tex/generic/babel/babel.sty
INPUT /usr/share/texlive/texmf-dist/tex/generic/babel/switch.def
INPUT /usr/share/texlive/texmf-dist/tex/generic/babel-english/english.ldf
INPUT /usr/share/texlive/texmf-dist/tex/generic/babel-english/english.ldf
INPUT /usr/share/texlive/texmf-dist/tex/generic/babel/babel.def
INPUT /usr/share/texlive/texmf-dist/tex/generic/babel/txtbabel.def
INPUT /usr/share/texlive/texmf-dist/tex/latex/geometry/geometry.sty
INPUT /usr/share/texlive/texmf-dist/tex/latex/geometry/geometry.sty
INPUT /usr/share/texlive/texmf-dist/tex/latex/graphics/keyval.sty
INPUT /usr/share/texlive/texmf-dist/tex/latex/graphics/keyval.sty
INPUT /usr/share/texlive/texmf-dist/tex/generic/oberdiek/ifpdf.sty
INPUT /usr/share/texlive/texmf-dist/tex/generic/oberdiek/ifpdf.sty
INPUT /usr/share/texlive/texmf-dist/tex/generic/oberdiek/ifvtex.sty
INPUT /usr/share/texlive/texmf-dist/tex/generic/oberdiek/ifvtex.sty
INPUT /usr/share/texlive/texmf-dist/tex/generic/ifxetex/ifxetex.sty
INPUT /usr/share/texlive/texmf-dist/tex/generic/ifxetex/ifxetex.sty
INPUT /usr/share/texlive/texmf-dist/tex/latex/base/inputenc.sty
INPUT /usr/share/texlive/texmf-dist/tex/latex/base/inputenc.sty
INPUT /home/sil/texmf/tex/latex/libertine/libertine.sty
INPUT /home/sil/texmf/tex/latex/libertine/libertine.sty
INPUT /usr/share/texlive/texmf-dist/tex/generic/oberdiek/ifluatex.sty
INPUT /usr/share/texlive/texmf-dist/tex/generic/oberdiek/ifluatex.sty
INPUT /usr/share/texlive/texmf-dist/tex/latex/xkeyval/xkeyval.sty
INPUT /usr/share/texlive/texmf-dist/tex/latex/xkeyval/xkeyval.sty
INPUT /usr/share/texlive/texmf-dist/tex/generic/xkeyval/xkeyval.tex
INPUT /usr/share/texlive/texmf-dist/tex/generic/xkeyval/xkvutils.tex
INPUT /usr/share/texlive/texmf-dist/tex/latex/base/textcomp.sty
INPUT /usr/share/texlive/texmf-dist/tex/latex/base/textcomp.sty
INPUT /usr/share/texlive/texmf-dist/tex/latex/base/ts1enc.def
INPUT /usr/share/texlive/texmf-dist/tex/latex/base/ts1enc.def
INPUT /usr/share/texlive/texmf-dist/tex/latex/base/ts1enc.dfu
INPUT /usr/share/texlive/texmf-dist/tex/latex/base/ts1enc.dfu
INPUT /home/sil/texmf/tex/latex/mweights/mweights.sty
INPUT /home/sil/texmf/tex/latex/mweights/mweights.sty
INPUT /usr/share/texlive/texmf-dist/tex/latex/base/fontenc.sty
INPUT /usr/share/texlive/texmf-dist/tex/latex/base/fontenc.sty
INPUT /home/sil/texmf/tex/latex/fontaxes/fontaxes.sty
INPUT /home/sil/texmf/tex/latex/fontaxes/fontaxes.sty
INPUT /home/sil/texmf/tex/latex/libertine/LinLibertine_I.tex
INPUT /home/sil/texmf/tex/latex/libertine/LinLibertine_I.tex
INPUT /home/sil/texmf/tex/latex/libertinust1math/libertinust1math.sty
INPUT /home/sil/texmf/tex/latex/libertinust1math/libertinust1math.sty
INPUT /usr/share/texlive/texmf-dist/tex/latex/amsmath/amsmath.sty
INPUT /usr/share/texlive/texmf-dist/tex/latex/amsmath/amsmath.sty
INPUT /usr/share/texlive/texmf-dist/tex/latex/amsmath/amstext.sty
INPUT /usr/share/texlive/texmf-dist/tex/latex/amsmath/amstext.sty
INPUT /usr/share/texlive/texmf-dist/tex/latex/amsmath/amsgen.sty
INPUT /usr/share/texlive/texmf-dist/tex/latex/amsmath/amsgen.sty
INPUT /usr/share/texlive/texmf-dist/tex/latex/amsmath/amsbsy.sty
INPUT /usr/share/texlive/texmf-dist/tex/latex/amsmath/amsbsy.sty
INPUT /usr/share/texlive/texmf-dist/tex/latex/amsmath/amsopn.sty
INPUT /usr/share/texlive/texmf-dist/tex/latex/amsmath/amsopn.sty
INPUT /usr/share/texlive/texmf-dist/tex/latex/base/fontenc.sty
INPUT /usr/share/texlive/texmf-dist/tex/latex/base/fontenc.sty
INPUT /usr/share/texlive/texmf-dist/tex/latex/base/t1enc.def
INPUT /usr/share/texlive/texmf-dist/tex/latex/base/t1enc.def
INPUT /usr/share/texlive/texmf-dist/fonts/tfm/jknappen/ec/ecrm1000.tfm
INPUT /usr/share/texlive/texmf-dist/tex/latex/xcolor/xcolor.sty
INPUT /usr/share/texlive/texmf-dist/tex/latex/xcolor/xcolor.sty
INPUT /usr/share/texlive/texmf-dist/tex/latex/graphics-cfg/color.cfg
INPUT /usr/share/texlive/texmf-dist/tex/latex/graphics-cfg/color.cfg
INPUT /usr/share/texlive/texmf-dist/tex/latex/graphics-def/pdftex.def
INPUT /usr/share/texlive/texmf-dist/tex/latex/graphics-def/pdftex.def
INPUT /usr/share/texlive/texmf-dist/tex/latex/colortbl/colortbl.sty
INPUT /usr/share/texlive/texmf-dist/tex/latex/colortbl/colortbl.sty
INPUT /usr/share/texlive/texmf-dist/tex/latex/tools/array.sty
INPUT /usr/share/texlive/texmf-dist/tex/latex/tools/array.sty
INPUT /usr/share/texlive/texmf-dist/tex/latex/graphics/graphicx.sty
INPUT /usr/share/texlive/texmf-dist/tex/latex/graphics/graphicx.sty
INPUT /usr/share/texlive/texmf-dist/tex/latex/graphics/graphics.sty
INPUT /usr/share/texlive/texmf-dist/tex/latex/graphics/graphics.sty
INPUT /usr/share/texlive/texmf-dist/tex/latex/graphics/trig.sty
INPUT /usr/share/texlive/texmf-dist/tex/latex/graphics/trig.sty
INPUT /usr/share/texlive/texmf-dist/tex/latex/graphics-cfg/graphics.cfg
INPUT /usr/share/texlive/texmf-dist/tex/latex/graphics-cfg/graphics.cfg
INPUT /usr/share/texlive/texmf-dist/tex/latex/oberdiek/grffile.sty
INPUT /usr/share/texlive/texmf-dist/tex/latex/oberdiek/grffile.sty
INPUT /usr/share/texlive/texmf-dist/tex/latex/oberdiek/kvoptions.sty
INPUT /usr/share/texlive/texmf-dist/tex/latex/oberdiek/kvoptions.sty
INPUT /usr/share/texlive/texmf-dist/tex/generic/oberdiek/ltxcmds.sty
INPUT /usr/share/texlive/texmf-dist/tex/generic/oberdiek/ltxcmds.sty
INPUT /usr/share/texlive/texmf-dist/tex/generic/oberdiek/kvsetkeys.sty
INPUT /usr/share/texlive/texmf-dist/tex/generic/oberdiek/kvsetkeys.sty
INPUT /usr/share/texlive/texmf-dist/tex/generic/oberdiek/infwarerr.sty
INPUT /usr/share/texlive/texmf-dist/tex/generic/oberdiek/infwarerr.sty
INPUT /usr/share/texlive/texmf-dist/tex/generic/oberdiek/etexcmds.sty
INPUT /usr/share/texlive/texmf-dist/tex/generic/oberdiek/etexcmds.sty
INPUT /usr/share/texlive/texmf-dist/tex/generic/oberdiek/pdftexcmds.sty
INPUT /usr/share/texlive/texmf-dist/tex/generic/oberdiek/pdftexcmds.sty
INPUT /usr/share/texlive/texmf-dist/tex/latex/tools/longtable.sty
INPUT /usr/share/texlive/texmf-dist/tex/latex/tools/longtable.sty
INPUT /home/sil/texmf/tex/latex/wrapfig/wrapfig.sty
INPUT /home/sil/texmf/tex/latex/wrapfig/wrapfig.sty
INPUT /usr/share/texlive/texmf-dist/tex/latex/graphics/rotating.sty
INPUT /usr/share/texlive/texmf-dist/tex/latex/graphics/rotating.sty
INPUT /usr/share/texlive/texmf-dist/tex/latex/base/ifthen.sty
INPUT /usr/share/texlive/texmf-dist/tex/latex/base/ifthen.sty
INPUT /home/sil/texmf/tex/generic/ulem/ulem.sty
INPUT /home/sil/texmf/tex/generic/ulem/ulem.sty
INPUT /usr/share/texlive/texmf-dist/fonts/tfm/public/latex-fonts/lasy6.tfm
INPUT /usr/share/texlive/texmf-dist/tex/latex/mathtools/mathtools.sty
INPUT /usr/share/texlive/texmf-dist/tex/latex/mathtools/mathtools.sty
INPUT /usr/share/texlive/texmf-dist/tex/latex/tools/calc.sty
INPUT /usr/share/texlive/texmf-dist/tex/latex/tools/calc.sty
INPUT /usr/share/texlive/texmf-dist/tex/latex/mathtools/mhsetup.sty
INPUT /usr/share/texlive/texmf-dist/tex/latex/mathtools/mhsetup.sty
INPUT /usr/share/texlive/texmf-dist/tex/latex/amsfonts/amssymb.sty
INPUT /usr/share/texlive/texmf-dist/tex/latex/amsfonts/amssymb.sty
INPUT /usr/share/texlive/texmf-dist/tex/latex/amsfonts/amsfonts.sty
INPUT /usr/share/texlive/texmf-dist/tex/latex/amsfonts/amsfonts.sty
INPUT /home/sil/texmf/tex/latex/capt-of/capt-of.sty
INPUT /home/sil/texmf/tex/latex/capt-of/capt-of.sty
INPUT /usr/share/texlive/texmf-dist/tex/latex/booktabs/booktabs.sty
INPUT /usr/share/texlive/texmf-dist/tex/latex/booktabs/booktabs.sty
INPUT /usr/share/texlive/texmf-dist/tex/latex/fancyhdr/fancyhdr.sty
INPUT /usr/share/texlive/texmf-dist/tex/latex/fancyhdr/fancyhdr.sty
INPUT /home/sil/texmf/tex/latex/enumitem/enumitem.sty
INPUT /home/sil/texmf/tex/latex/enumitem/enumitem.sty
INPUT /usr/share/texlive/texmf-dist/tex/latex/tools/multicol.sty
INPUT /usr/share/texlive/texmf-dist/tex/latex/tools/multicol.sty
INPUT /home/sil/texmf/tex/latex/multirow/multirow.sty
INPUT /home/sil/texmf/tex/latex/multirow/multirow.sty
INPUT /usr/share/texlive/texmf-dist/tex/latex/hyperref/hyperref.sty
INPUT /usr/share/texlive/texmf-dist/tex/latex/hyperref/hyperref.sty
INPUT /usr/share/texlive/texmf-dist/tex/generic/oberdiek/hobsub-hyperref.sty
INPUT /usr/share/texlive/texmf-dist/tex/generic/oberdiek/hobsub-hyperref.sty
INPUT /usr/share/texlive/texmf-dist/tex/generic/oberdiek/hobsub-hyperref.sty
INPUT /usr/share/texlive/texmf-dist/tex/generic/oberdiek/hobsub-generic.sty
INPUT /usr/share/texlive/texmf-dist/tex/generic/oberdiek/hobsub-generic.sty
INPUT /usr/share/texlive/texmf-dist/tex/latex/oberdiek/auxhook.sty
INPUT /usr/share/texlive/texmf-dist/tex/latex/oberdiek/auxhook.sty
INPUT /usr/share/texlive/texmf-dist/tex/latex/hyperref/pd1enc.def
INPUT /usr/share/texlive/texmf-dist/tex/latex/hyperref/pd1enc.def
INPUT /usr/share/texlive/texmf-dist/tex/latex/latexconfig/hyperref.cfg
INPUT /usr/share/texlive/texmf-dist/tex/latex/latexconfig/hyperref.cfg
INPUT /usr/share/texlive/texmf-dist/tex/latex/url/url.sty
INPUT /usr/share/texlive/texmf-dist/tex/latex/url/url.sty
INPUT /usr/share/texlive/texmf-dist/tex/latex/hyperref/hpdftex.def
INPUT /usr/share/texlive/texmf-dist/tex/latex/hyperref/hpdftex.def
INPUT /usr/share/texlive/texmf-dist/tex/latex/oberdiek/rerunfilecheck.sty
INPUT /usr/share/texlive/texmf-dist/tex/latex/oberdiek/rerunfilecheck.sty
INPUT /usr/share/texlive/texmf-dist/tex/latex/microtype/microtype.sty
INPUT /usr/share/texlive/texmf-dist/tex/latex/microtype/microtype.sty
INPUT /usr/share/texlive/texmf-dist/tex/latex/microtype/microtype-pdftex.def
INPUT /usr/share/texlive/texmf-dist/tex/latex/microtype/microtype-pdftex.def
INPUT /usr/share/texlive/texmf-dist/tex/latex/microtype/microtype.cfg
INPUT /usr/share/texlive/texmf-dist/tex/latex/microtype/microtype.cfg
INPUT /usr/share/texlive/texmf-dist/tex/latex/microtype/microtype.cfg
INPUT /home/sil/texmf/tex/latex/appendix/appendix.sty
INPUT /home/sil/texmf/tex/latex/appendix/appendix.sty
INPUT /home/sil/texmf/tex/latex/minted/minted.sty
INPUT /home/sil/texmf/tex/latex/minted/minted.sty
INPUT /home/sil/texmf/tex/latex/fvextra/fvextra.sty
INPUT /home/sil/texmf/tex/latex/fvextra/fvextra.sty
INPUT /usr/share/texlive/texmf-dist/tex/latex/etoolbox/etoolbox.sty
INPUT /usr/share/texlive/texmf-dist/tex/latex/etoolbox/etoolbox.sty
INPUT /usr/share/texlive/texmf-dist/tex/latex/fancyvrb/fancyvrb.sty
INPUT /usr/share/texlive/texmf-dist/tex/latex/fancyvrb/fancyvrb.sty
INPUT /home/sil/texmf/tex/latex/upquote/upquote.sty
INPUT /home/sil/texmf/tex/latex/upquote/upquote.sty
INPUT /usr/share/texlive/texmf-dist/tex/latex/lineno/lineno.sty
INPUT /usr/share/texlive/texmf-dist/tex/latex/lineno/lineno.sty
INPUT /usr/share/texlive/texmf-dist/tex/latex/tools/shellesc.sty
INPUT /usr/share/texlive/texmf-dist/tex/latex/tools/shellesc.sty
INPUT /usr/share/texlive/texmf-dist/tex/latex/tools/shellesc.sty
INPUT /home/sil/texmf/tex/latex/ifplatform/ifplatform.sty
INPUT /home/sil/texmf/tex/latex/ifplatform/ifplatform.sty
INPUT /usr/share/texlive/texmf-dist/tex/generic/oberdiek/catchfile.sty
INPUT /usr/share/texlive/texmf-dist/tex/generic/oberdiek/catchfile.sty
INPUT /dev/null
INPUT resProtocol.w18
INPUT resProtocol.w18
INPUT /home/sil/texmf/tex/generic/xstring/xstring.sty
INPUT /home/sil/texmf/tex/generic/xstring/xstring.sty
INPUT /home/sil/texmf/tex/generic/xstring/xstring.tex
INPUT /home/sil/texmf/tex/latex/framed/framed.sty
INPUT /home/sil/texmf/tex/latex/framed/framed.sty
INPUT /usr/share/texlive/texmf-dist/tex/latex/float/float.sty
INPUT /usr/share/texlive/texmf-dist/tex/latex/float/float.sty
INPUT /home/sil/texmf/tex/latex/placeins/placeins.sty
INPUT /home/sil/texmf/tex/latex/placeins/placeins.sty
INPUT /home/sil/texmf/tex/latex/biblatex/biblatex.sty
INPUT /home/sil/texmf/tex/latex/biblatex/biblatex.sty
INPUT /home/sil/texmf/tex/latex/logreq/logreq.sty
INPUT /home/sil/texmf/tex/latex/logreq/logreq.sty
INPUT /home/sil/texmf/tex/latex/logreq/logreq.def
INPUT /home/sil/texmf/tex/latex/logreq/logreq.def
INPUT /home/sil/texmf/tex/latex/biblatex/blx-dm.def
INPUT /home/sil/texmf/tex/latex/biblatex/blx-dm.def
INPUT /home/sil/texmf/tex/latex/biblatex/blx-compat.def
INPUT /home/sil/texmf/tex/latex/biblatex/blx-compat.def
INPUT /home/sil/texmf/tex/latex/biblatex/biblatex.def
INPUT /home/sil/texmf/tex/latex/biblatex/biblatex.def
INPUT /home/sil/texmf/tex/latex/biblatex-ieee/ieee.bbx
INPUT /home/sil/texmf/tex/latex/biblatex-ieee/ieee.bbx
INPUT /home/sil/texmf/tex/latex/biblatex/bbx/numeric-comp.bbx
INPUT /home/sil/texmf/tex/latex/biblatex/bbx/numeric-comp.bbx
INPUT /home/sil/texmf/tex/latex/biblatex/bbx/numeric.bbx
INPUT /home/sil/texmf/tex/latex/biblatex/bbx/numeric.bbx
INPUT /home/sil/texmf/tex/latex/biblatex/bbx/standard.bbx
INPUT /home/sil/texmf/tex/latex/biblatex/bbx/standard.bbx
INPUT /home/sil/texmf/tex/latex/biblatex/lbx/english.lbx
INPUT /home/sil/texmf/tex/latex/biblatex/lbx/english.lbx
INPUT /home/sil/texmf/tex/latex/biblatex/cbx/numeric.cbx
INPUT /home/sil/texmf/tex/latex/biblatex/cbx/numeric.cbx
INPUT /home/sil/texmf/tex/latex/biblatex/biblatex.cfg
INPUT /home/sil/texmf/tex/latex/biblatex/biblatex.cfg
INPUT resProtocol.aex
INPUT resProtocol.aex
INPUT /home/sil/texmf/tex/latex/biblatex/lbx/english.lbx
INPUT /home/sil/texmf/tex/latex/biblatex/lbx/english.lbx
INPUT build/resProtocol.aux
INPUT build/resProtocol.aux
OUTPUT build/resProtocol.aux
INPUT /usr/share/texlive/texmf-dist/tex/latex/base/ts1cmr.fd
INPUT /usr/share/texlive/texmf-dist/tex/latex/base/ts1cmr.fd
INPUT /home/sil/texmf/tex/latex/libertinust1math/ls1libertinust1math.fd
INPUT /home/sil/texmf/tex/latex/libertinust1math/ls1libertinust1math.fd
INPUT /home/sil/texmf/tex/latex/libertinust1math/ls2libertinust1mathsym.fd
INPUT /home/sil/texmf/tex/latex/libertinust1math/ls2libertinust1mathsym.fd
INPUT /home/sil/texmf/tex/latex/libertine/T1LinuxBiolinumT-TLF.fd
INPUT /home/sil/texmf/tex/latex/libertine/T1LinuxBiolinumT-TLF.fd
INPUT /home/sil/texmf/fonts/tfm/public/libertine/LinBiolinumT-tlf-t1.tfm
INPUT /usr/share/texlive/texmf-dist/tex/context/base/mkii/supp-pdf.mkii
INPUT /usr/share/texlive/texmf-dist/tex/context/base/mkii/supp-pdf.mkii
INPUT /usr/share/texlive/texmf-dist/tex/latex/oberdiek/epstopdf-base.sty
INPUT /usr/share/texlive/texmf-dist/tex/latex/oberdiek/epstopdf-base.sty
INPUT /usr/share/texlive/texmf-dist/tex/latex/oberdiek/grfext.sty
INPUT /usr/share/texlive/texmf-dist/tex/latex/oberdiek/grfext.sty
INPUT /usr/share/texlive/texmf-dist/tex/latex/latexconfig/epstopdf-sys.cfg
INPUT /usr/share/texlive/texmf-dist/tex/latex/latexconfig/epstopdf-sys.cfg
INPUT /usr/share/texlive/texmf-dist/tex/latex/hyperref/nameref.sty
INPUT /usr/share/texlive/texmf-dist/tex/latex/hyperref/nameref.sty
INPUT /usr/share/texlive/texmf-dist/tex/generic/oberdiek/gettitlestring.sty
INPUT /usr/share/texlive/texmf-dist/tex/generic/oberdiek/gettitlestring.sty
INPUT build/resProtocol.out
INPUT build/resProtocol.out
INPUT build/resProtocol.out
INPUT build/resProtocol.out
OUTPUT build/resProtocol.pdf
INPUT build/resProtocol.out
INPUT build/resProtocol.out
OUTPUT build/resProtocol.out
OUTPUT build/resProtocol.bcf
INPUT build/resProtocol.bbl
INPUT build/resProtocol.bbl
INPUT build/resProtocol.bbl
INPUT /home/sil/texmf/fonts/tfm/public/libertine/LinBiolinumT-tlf-sc-t1.tfm
INPUT /home/sil/texmf/fonts/tfm/public/libertine/LinBiolinumT-tlf-sc-t1.tfm
INPUT /home/sil/texmf/fonts/tfm/public/libertine/LinBiolinumT-tlf-sc-t1.tfm
INPUT /home/sil/texmf/fonts/tfm/public/libertine/LinBiolinumT-tlf-sc-t1.tfm
INPUT /home/sil/texmf/fonts/tfm/public/libertine/LinBiolinumT-tlf-sc-t1.tfm
INPUT /home/sil/texmf/fonts/tfm/public/libertine/LinBiolinumT-tlf-sc-t1.tfm
INPUT /home/sil/texmf/fonts/tfm/public/libertine/LinBiolinumT-tlf-sc-t1.tfm
INPUT /home/sil/texmf/fonts/tfm/public/libertine/LinBiolinumT-tlf-sc-t1.tfm
INPUT /home/sil/texmf/fonts/tfm/public/libertine/LinBiolinumT-tlf-t1.tfm
INPUT /home/sil/texmf/fonts/tfm/public/libertine/LinBiolinumTB-tlf-t1.tfm
INPUT /home/sil/texmf/fonts/tfm/public/libertine/LinBiolinumT-tlf-t1.tfm
INPUT /home/sil/texmf/fonts/tfm/public/libertine/LinBiolinumTI-tlf-t1.tfm
INPUT /home/sil/texmf/fonts/tfm/public/libertinust1math/libertinust1-mathrm.tfm
INPUT /home/sil/texmf/fonts/tfm/public/libertinust1math/libertinust1-mathrm.tfm
INPUT /home/sil/texmf/fonts/tfm/public/libertinust1math/libertinust1-mathrm.tfm
INPUT /home/sil/texmf/fonts/tfm/public/libertinust1math/libertinust1-mathit.tfm
INPUT /home/sil/texmf/fonts/tfm/public/libertinust1math/libertinust1-mathit.tfm
INPUT /home/sil/texmf/fonts/tfm/public/libertinust1math/libertinust1-mathit.tfm
INPUT /home/sil/texmf/fonts/tfm/public/libertinust1math/libertinust1-mathsym.tfm
INPUT /home/sil/texmf/fonts/tfm/public/libertinust1math/libertinust1-mathsym.tfm
INPUT /home/sil/texmf/fonts/tfm/public/libertinust1math/libertinust1-mathsym.tfm
INPUT /home/sil/texmf/tex/latex/libertinust1math/ls2libertinust1mathex.fd
INPUT /home/sil/texmf/tex/latex/libertinust1math/ls2libertinust1mathex.fd
INPUT /home/sil/texmf/fonts/tfm/public/libertinust1math/libertinust1-mathex.tfm
INPUT /home/sil/texmf/fonts/tfm/public/libertinust1math/libertinust1-mathex.tfm
INPUT /home/sil/texmf/fonts/tfm/public/libertinust1math/libertinust1-mathex.tfm
INPUT /home/sil/texmf/tex/latex/libertinust1math/ls1libertinust1mathbb.fd
INPUT /home/sil/texmf/tex/latex/libertinust1math/ls1libertinust1mathbb.fd
INPUT /home/sil/texmf/fonts/tfm/public/libertinust1math/libertinust1-mathbb.tfm
INPUT /home/sil/texmf/fonts/tfm/public/libertinust1math/libertinust1-mathbb.tfm
INPUT /home/sil/texmf/fonts/tfm/public/libertinust1math/libertinust1-mathbb.tfm
INPUT /home/sil/texmf/fonts/tfm/public/libertinust1math/libertinust1-mathrm-bold.tfm
INPUT /home/sil/texmf/fonts/tfm/public/libertinust1math/libertinust1-mathrm-bold.tfm
INPUT /home/sil/texmf/fonts/tfm/public/libertinust1math/libertinust1-mathrm-bold.tfm
INPUT /home/sil/texmf/fonts/tfm/public/libertinust1math/libertinust1-mathit-bold.tfm
INPUT /home/sil/texmf/fonts/tfm/public/libertinust1math/libertinust1-mathit-bold.tfm
INPUT /home/sil/texmf/fonts/tfm/public/libertinust1math/libertinust1-mathit-bold.tfm
INPUT /usr/share/texlive/texmf-dist/tex/latex/amsfonts/umsa.fd
INPUT /usr/share/texlive/texmf-dist/tex/latex/amsfonts/umsa.fd
INPUT /usr/share/texlive/texmf-dist/fonts/tfm/public/amsfonts/symbols/msam10.tfm
INPUT /usr/share/texlive/texmf-dist/tex/latex/microtype/mt-msa.cfg
INPUT /usr/share/texlive/texmf-dist/tex/latex/microtype/mt-msa.cfg
INPUT /usr/share/texlive/texmf-dist/fonts/tfm/public/amsfonts/symbols/msam10.tfm
INPUT /usr/share/texlive/texmf-dist/fonts/tfm/public/amsfonts/symbols/msam7.tfm
INPUT /usr/share/texlive/texmf-dist/tex/latex/amsfonts/umsb.fd
INPUT /usr/share/texlive/texmf-dist/tex/latex/amsfonts/umsb.fd
INPUT /usr/share/texlive/texmf-dist/fonts/tfm/public/amsfonts/symbols/msbm10.tfm
INPUT /usr/share/texlive/texmf-dist/tex/latex/microtype/mt-msb.cfg
INPUT /usr/share/texlive/texmf-dist/tex/latex/microtype/mt-msb.cfg
INPUT /usr/share/texlive/texmf-dist/fonts/tfm/public/amsfonts/symbols/msbm10.tfm
INPUT /usr/share/texlive/texmf-dist/fonts/tfm/public/amsfonts/symbols/msbm7.tfm
INPUT /home/sil/texmf/fonts/vf/public/libertine/LinBiolinumT-tlf-sc-t1.vf
INPUT /home/sil/texmf/fonts/tfm/public/libertine/LinBiolinumT-tlf-sc-t1--base.tfm
INPUT /home/sil/.texlive2018/texmf-var/fonts/map/pdftex/updmap/pdftex.map
INPUT /home/sil/texmf/fonts/vf/public/libertine/LinBiolinumT-tlf-sc-t1.vf
INPUT /home/sil/texmf/fonts/tfm/public/libertine/LinBiolinumT-tlf-sc-t1--base.tfm
INPUT /home/sil/texmf/fonts/vf/public/libertine/LinBiolinumT-tlf-sc-t1.vf
INPUT /home/sil/texmf/fonts/tfm/public/libertine/LinBiolinumT-tlf-sc-t1--base.tfm
INPUT /home/sil/texmf/fonts/vf/public/libertine/LinBiolinumTB-tlf-t1.vf
INPUT /home/sil/texmf/fonts/tfm/public/libertine/LinBiolinumTB-tlf-t1--base.tfm
INPUT /home/sil/texmf/fonts/vf/public/libertine/LinBiolinumTI-tlf-t1.vf
INPUT /home/sil/texmf/fonts/tfm/public/libertine/LinBiolinumTI-tlf-t1--base.tfm
INPUT /home/sil/texmf/fonts/vf/public/libertine/LinBiolinumT-tlf-t1.vf
INPUT /home/sil/texmf/fonts/tfm/public/libertine/LinBiolinumT-tlf-t1--base.tfm
INPUT /home/sil/texmf/fonts/tfm/public/libertine/LinBiolinumT-tlf-t1.tfm
INPUT /home/sil/texmf/fonts/tfm/public/libertine/LinBiolinumTB-tlf-t1.tfm
INPUT build/resProtocol.toc
INPUT build/resProtocol.toc
INPUT /home/sil/texmf/fonts/tfm/public/libertine/LinBiolinumTB-tlf-t1.tfm
OUTPUT build/resProtocol.toc
INPUT /home/sil/texmf/fonts/vf/public/libertine/LinBiolinumT-tlf-t1.vf
INPUT /home/sil/texmf/fonts/tfm/public/libertine/LinBiolinumT-tlf-t1--base.tfm
INPUT /home/sil/texmf/fonts/vf/public/libertine/LinBiolinumTB-tlf-t1.vf
INPUT /home/sil/texmf/fonts/tfm/public/libertine/LinBiolinumTB-tlf-t1--base.tfm
INPUT /home/sil/texmf/fonts/vf/public/libertine/LinBiolinumTB-tlf-t1.vf
INPUT /home/sil/texmf/fonts/tfm/public/libertine/LinBiolinumTB-tlf-t1--base.tfm
INPUT ./includes/intro.tex
INPUT ./includes/intro.tex
INPUT ./includes/firewire.tex
INPUT ./includes/firewire.tex
INPUT /home/sil/texmf/tex/latex/libertine/TS1LinuxBiolinumT-TLF.fd
INPUT /home/sil/texmf/tex/latex/libertine/TS1LinuxBiolinumT-TLF.fd
INPUT /home/sil/texmf/fonts/tfm/public/libertine/LinBiolinumT-tlf-ts1.tfm
INPUT /home/sil/texmf/fonts/tfm/public/libertine/LinBiolinumTB-tlf-t1.tfm
INPUT ./images/fwmodule.jpg
INPUT ./images/fwmodule.jpg
INPUT ./images/fwmodule.jpg
INPUT ./images/fwmodule.jpg
INPUT /home/sil/texmf/fonts/vf/public/libertine/LinBiolinumT-tlf-ts1.vf
INPUT /home/sil/texmf/fonts/tfm/public/libertine/LinBiolinumT-tlf-ts1--base.tfm
INPUT /home/sil/texmf/fonts/vf/public/libertine/LinBiolinumTB-tlf-t1.vf
INPUT /home/sil/texmf/fonts/tfm/public/libertine/LinBiolinumTB-tlf-t1--base.tfm
INPUT ./images/fwaddress.png
INPUT ./images/fwaddress.png
INPUT ./images/fwaddress.png
INPUT ./images/fwaddress.png
INPUT /home/sil/texmf/fonts/tfm/public/libertine/LinBiolinumTI-tlf-t1.tfm
INPUT /home/sil/texmf/fonts/vf/public/libertine/LinBiolinumTI-tlf-t1.vf
INPUT /home/sil/texmf/fonts/tfm/public/libertine/LinBiolinumTI-tlf-t1--base.tfm
INPUT ./images/fwDCCode.png
INPUT ./images/fwDCCode.png
INPUT ./images/fwDCCode.png
INPUT ./images/fwDCCode.png
INPUT ./images/fwStrobeData.png
INPUT ./images/fwStrobeData.png
INPUT ./images/fwStrobeData.png
INPUT ./images/fwStrobeData.png
INPUT ./images/fwTP.png
INPUT ./images/fwTP.png
INPUT ./images/fwTP.png
INPUT ./images/fwTP.png
INPUT ./includes/nubus.tex
INPUT ./includes/nubus.tex
INPUT ./images/nubusdiag.png
INPUT ./images/nubusdiag.png
INPUT ./images/nubusdiag.png
INPUT ./images/nubusdiag.png
INPUT ./images/NuBusTransaction.png
INPUT ./images/NuBusTransaction.png
INPUT ./images/NuBusTransaction.png
INPUT ./images/NuBusTransaction.png
INPUT ./includes/pc104.tex
INPUT ./includes/pc104.tex
INPUT ./images/pc8BMemIOTim.png
INPUT ./images/pc8BMemIOTim.png
INPUT ./images/pc8BMemIOTim.png
INPUT ./images/pc8BMemIOTim.png
INPUT ./images/pc16BMemTim.png
INPUT ./images/pc16BMemTim.png
INPUT ./images/pc16BMemTim.png
INPUT ./images/pc16BMemTim.png
INPUT ./images/pc16BIOTim.png
INPUT ./images/pc16BIOTim.png
INPUT ./images/pc16BIOTim.png
INPUT ./images/pc16BIOTim.png
INPUT ./images/pcDMATim.png
INPUT ./images/pcDMATim.png
INPUT ./images/pcDMATim.png
INPUT ./images/pcDMATim.png
INPUT ./includes/power-line_communications.tex
INPUT ./includes/power-line_communications.tex
INPUT ./images/plc.jpg
INPUT ./images/plc.jpg
INPUT ./images/plc.jpg
INPUT ./images/plc.jpg
INPUT ./images/telenet_power_line.png
INPUT ./images/telenet_power_line.png
INPUT ./images/telenet_power_line.png
INPUT ./images/telenet_power_line.png
INPUT ./images/ofdm-subcarriers.png
INPUT ./images/ofdm-subcarriers.png
INPUT ./images/ofdm-subcarriers.png
INPUT ./images/ofdm-subcarriers.png
INPUT ./images/Frequenzmultiplex001.svg.png
INPUT ./images/Frequenzmultiplex001.svg.png
INPUT ./images/Frequenzmultiplex001.svg.png
INPUT ./images/Frequenzmultiplex001.svg.png
INPUT ./images/16-QAM.png
INPUT ./images/16-QAM.png
INPUT ./images/16-QAM.png
INPUT ./images/16-QAM.png
INPUT ./images/qam_time.png
INPUT ./images/qam_time.png
INPUT ./images/qam_time.png
INPUT ./images/qam_time.png
INPUT ./images/LDPC_fragment.png
INPUT ./images/LDPC_fragment.png
INPUT ./images/LDPC_fragment.png
INPUT ./images/LDPC_fragment.png
INPUT ./images/tanner_graph_empty.png
INPUT ./images/tanner_graph_empty.png
INPUT ./images/tanner_graph_empty.png
INPUT ./images/tanner_graph_empty.png
INPUT ./images/tanner_graph_filled.png
INPUT ./images/tanner_graph_filled.png
INPUT ./images/tanner_graph_filled.png
INPUT ./images/tanner_graph_filled.png
INPUT ./images/tanner_graph_error.png
INPUT ./images/tanner_graph_error.png
INPUT ./images/tanner_graph_error.png
INPUT ./images/tanner_graph_error.png
INPUT /home/sil/texmf/fonts/tfm/public/libertine/LinBiolinumT-tlf-t1.tfm
INPUT /home/sil/texmf/fonts/tfm/public/libertine/LinBiolinumTB-tlf-t1.tfm
INPUT /home/sil/texmf/fonts/tfm/public/libertine/LinBiolinumT-tlf-t1.tfm
INPUT /home/sil/texmf/fonts/tfm/public/libertine/LinBiolinumTB-tlf-t1.tfm
INPUT ./images/tanner_graph_fixed.png
INPUT ./images/tanner_graph_fixed.png
INPUT ./images/tanner_graph_fixed.png
INPUT ./images/tanner_graph_fixed.png
INPUT ./includes/knx.tex
INPUT ./includes/knx.tex
INPUT ./images/structure_of_the_mau.png
INPUT ./images/structure_of_the_mau.png
INPUT ./images/structure_of_the_mau.png
INPUT ./images/structure_of_the_mau.png
INPUT ./images/knx_signal_encoding.png
INPUT ./images/knx_signal_encoding.png
INPUT ./images/knx_signal_encoding.png
INPUT ./images/knx_signal_encoding.png
INPUT ./images/idealised_overlapping.png
INPUT ./images/idealised_overlapping.png
INPUT ./images/idealised_overlapping.png
INPUT ./images/idealised_overlapping.png
INPUT ./images/knx_character.png
INPUT ./images/knx_character.png
INPUT ./images/knx_character.png
INPUT ./images/knx_character.png
INPUT ./images/structure_acknowlege.png
INPUT ./images/structure_acknowlege.png
INPUT ./images/structure_acknowlege.png
INPUT ./images/structure_acknowlege.png
INPUT ./images/syndromes_erros.png
INPUT ./images/syndromes_erros.png
INPUT ./images/syndromes_erros.png
INPUT ./images/syndromes_erros.png
INPUT ./images/galois-field.png
INPUT ./images/galois-field.png
INPUT ./images/galois-field.png
INPUT ./images/galois-field.png
INPUT ./includes/final_conclusion.tex
INPUT ./includes/final_conclusion.tex
INPUT /home/sil/texmf/tex/latex/libertine/T1LinuxLibertineMonoT-TLF.fd
INPUT /home/sil/texmf/tex/latex/libertine/T1LinuxLibertineMonoT-TLF.fd
INPUT /home/sil/texmf/fonts/tfm/public/libertine/LinLibertineMT-tlf-t1.tfm
INPUT /home/sil/texmf/fonts/vf/public/libertine/LinLibertineMT-tlf-t1.vf
INPUT /home/sil/texmf/fonts/tfm/public/libertine/LinLibertineMT-tlf-t1--base.tfm
INPUT build/resProtocol.aux
INPUT build/resProtocol.out
INPUT build/resProtocol.out
INPUT build/resProtocol.run.xml
OUTPUT build/resProtocol.run.xml
INPUT /home/sil/texmf/fonts/enc/dvips/libertine/lbtn_d6jdyt.enc
INPUT /home/sil/texmf/fonts/enc/dvips/libertinust1math/libusEX.enc
INPUT /home/sil/texmf/fonts/enc/dvips/libertinust1math/libusMR.enc
INPUT /home/sil/texmf/fonts/enc/dvips/libertinust1math/libusMI.enc
INPUT /home/sil/texmf/fonts/enc/dvips/libertine/lbtn_afusau.enc
INPUT /home/sil/texmf/fonts/enc/dvips/libertine/lbtn_25tcsq.enc
INPUT /home/sil/texmf/fonts/enc/dvips/libertine/lbtn_omcwp2.enc
INPUT /home/sil/texmf/fonts/type1/public/libertinust1math/LibertinusT1Math.pfb
INPUT /home/sil/texmf/fonts/type1/public/libertine/LinBiolinumT.pfb
INPUT /home/sil/texmf/fonts/type1/public/libertine/LinBiolinumTB.pfb
INPUT /home/sil/texmf/fonts/type1/public/libertine/LinBiolinumTI.pfb
INPUT /home/sil/texmf/fonts/type1/public/libertine/LinLibertineMT.pfb
