# Fdb version 3
["biber build/resProtocol"] 1546539373 "build/resProtocol.bcf" "build/resProtocol.bbl" "build/resProtocol" 1546539380
  "./bib/resProtocol.bib" 1546539251 6374 99aadd4f38b53fcc72fc8cc8858c8c77 ""
  "build/resProtocol.bcf" 1546539380 95096 e849abc0089c7a88d4c44fc728d8c28e ""
  (generated)
  "build/resProtocol.bbl"
  "build/resProtocol.blg"
["pdflatex"] 1546539377 "resProtocol.tex" "build/resProtocol.pdf" "resProtocol" 1546539380
  "/dev/null" 1546539018 0 d41d8cd98f00b204e9800998ecf8427e ""
  "/etc/texmf/web2c/texmf.cnf" 1536923686 475 c0e671620eb5563b2130f56340a5fde8 ""
  "/home/sil/.texlive2018/texmf-var/fonts/map/pdftex/updmap/pdftex.map" 1540840254 181458 cd55181ee4da343ea13bae06a85d3397 ""
  "/home/sil/texmf/fonts/enc/dvips/libertine/lbtn_25tcsq.enc" 1490133665 2921 8ca0eb0831f9bc5da080d3697cfe67bf ""
  "/home/sil/texmf/fonts/enc/dvips/libertine/lbtn_afusau.enc" 1490133665 3358 dfe33526c2f2184d6b22489aab24ba03 ""
  "/home/sil/texmf/fonts/enc/dvips/libertine/lbtn_d6jdyt.enc" 1490133665 3027 0f8800dbf8fc805c1803c2641beef0a1 ""
  "/home/sil/texmf/fonts/enc/dvips/libertine/lbtn_omcwp2.enc" 1490133665 3293 a078e2f25d1217d5cce548c137460bf1 ""
  "/home/sil/texmf/fonts/enc/dvips/libertinust1math/libusEX.enc" 1459202234 4370 9a6960ad261c3b8505f8616a17a865d2 ""
  "/home/sil/texmf/fonts/enc/dvips/libertinust1math/libusMI.enc" 1459202234 2466 b4c444f17020acc82bb4a3da32916aa7 ""
  "/home/sil/texmf/fonts/enc/dvips/libertinust1math/libusMR.enc" 1505510494 3938 3d40f38bec9f4e4b4ae3762c5efe6293 ""
  "/home/sil/texmf/fonts/tfm/public/libertine/LinBiolinumT-tlf-sc-t1--base.tfm" 1490133670 1700 a4354bcd9277175b9a626fb764379efc ""
  "/home/sil/texmf/fonts/tfm/public/libertine/LinBiolinumT-tlf-sc-t1.tfm" 1490133670 15956 2ed9f9f1e13dd05d72b5446860e558dc ""
  "/home/sil/texmf/fonts/tfm/public/libertine/LinBiolinumT-tlf-t1--base.tfm" 1490133670 1744 9486ddc64e90094bbb83f53a83b0e415 ""
  "/home/sil/texmf/fonts/tfm/public/libertine/LinBiolinumT-tlf-t1.tfm" 1490133670 19548 768852037f39958c435d71846b8877ea ""
  "/home/sil/texmf/fonts/tfm/public/libertine/LinBiolinumT-tlf-ts1--base.tfm" 1490133670 1476 4a9ded7a415d13ca81e0bba79de46b49 ""
  "/home/sil/texmf/fonts/tfm/public/libertine/LinBiolinumT-tlf-ts1.tfm" 1490133670 1508 c32475d902c7458e0ca128e509a1594e ""
  "/home/sil/texmf/fonts/tfm/public/libertine/LinBiolinumTB-tlf-t1--base.tfm" 1490133670 1768 23aace73e6def3193d6e0453af90487b ""
  "/home/sil/texmf/fonts/tfm/public/libertine/LinBiolinumTB-tlf-t1.tfm" 1490133670 19416 aedd2db224ad278ddf2c411f52d86014 ""
  "/home/sil/texmf/fonts/tfm/public/libertine/LinBiolinumTI-tlf-t1--base.tfm" 1490133670 1988 34f48347175f643e8b2134cd8f7a90a3 ""
  "/home/sil/texmf/fonts/tfm/public/libertine/LinBiolinumTI-tlf-t1.tfm" 1490133670 20012 beadc3a52552515981c78cd731a40afe ""
  "/home/sil/texmf/fonts/tfm/public/libertine/LinLibertineMT-tlf-t1--base.tfm" 1490133670 1312 a9955b590901567e3e40862bcb0b88d9 ""
  "/home/sil/texmf/fonts/tfm/public/libertine/LinLibertineMT-tlf-t1.tfm" 1490133670 1360 10fd05062625c5e6c495593d9c6ec5fa ""
  "/home/sil/texmf/fonts/tfm/public/libertinust1math/libertinust1-mathbb.tfm" 1529617709 732 4dcbdb0fec0646d23ed424ed967e9706 ""
  "/home/sil/texmf/fonts/tfm/public/libertinust1math/libertinust1-mathex.tfm" 1539032164 1632 46a5dbf9ea4253ed9ec3012af8019831 ""
  "/home/sil/texmf/fonts/tfm/public/libertinust1math/libertinust1-mathit-bold.tfm" 1529617709 3448 d39c8edc4ee7812d8628f378475f601e ""
  "/home/sil/texmf/fonts/tfm/public/libertinust1math/libertinust1-mathit.tfm" 1529617709 5232 97d0194fb1851a08bd12da595931380a ""
  "/home/sil/texmf/fonts/tfm/public/libertinust1math/libertinust1-mathrm-bold.tfm" 1529617709 7988 3fb0f3413b055864048fea3ec6600bde ""
  "/home/sil/texmf/fonts/tfm/public/libertinust1math/libertinust1-mathrm.tfm" 1529617709 6000 edd69a6cf92a91bea0fd681ef2a09305 ""
  "/home/sil/texmf/fonts/tfm/public/libertinust1math/libertinust1-mathsym.tfm" 1529617709 1692 ded43fb6148347cdae956b6c034b2665 ""
  "/home/sil/texmf/fonts/type1/public/libertine/LinBiolinumT.pfb" 1480098742 548786 1e51d517556d29f2841d57da58668a69 ""
  "/home/sil/texmf/fonts/type1/public/libertine/LinBiolinumTB.pfb" 1480098742 687959 b99c9f5a9b28f3dba077d1c078bceb3f ""
  "/home/sil/texmf/fonts/type1/public/libertine/LinBiolinumTI.pfb" 1480098742 879384 e498f90c951041b56f91c0ffbf77a9d2 ""
  "/home/sil/texmf/fonts/type1/public/libertine/LinLibertineMT.pfb" 1480098742 186098 73b9ed6736705c78c35150c064fce3e9 ""
  "/home/sil/texmf/fonts/type1/public/libertinust1math/LibertinusT1Math.pfb" 1537563990 811238 167df5e0f492e184c30bcf1da6d5c7b8 ""
  "/home/sil/texmf/fonts/vf/public/libertine/LinBiolinumT-tlf-sc-t1.vf" 1490133671 1728 f713409ed99afc136c84348d3127caab ""
  "/home/sil/texmf/fonts/vf/public/libertine/LinBiolinumT-tlf-t1.vf" 1490133671 1728 e76e04a950024a95b620698b679c9810 ""
  "/home/sil/texmf/fonts/vf/public/libertine/LinBiolinumT-tlf-ts1.vf" 1490133671 588 dd1507651160596948db71909e4bbaec ""
  "/home/sil/texmf/fonts/vf/public/libertine/LinBiolinumTB-tlf-t1.vf" 1480098768 1728 4ae633ddccb76ba8d0a0906a5e2e8fdf ""
  "/home/sil/texmf/fonts/vf/public/libertine/LinBiolinumTI-tlf-t1.vf" 1480098768 1728 0f47a4d345513e0ad2e29d47540d4f2a ""
  "/home/sil/texmf/fonts/vf/public/libertine/LinLibertineMT-tlf-t1.vf" 1490133671 1688 8ed3d48fec0e8c361bdd0de7664624b6 ""
  "/home/sil/texmf/tex/generic/ulem/ulem.sty" 1480098819 23756 854c01b779030ff5b2aad88ba7a119f2 ""
  "/home/sil/texmf/tex/generic/xstring/xstring.sty" 1544223003 123 a302f2c651a95033260db60e51527ae8 ""
  "/home/sil/texmf/tex/generic/xstring/xstring.tex" 1544395165 47301 f6e3dc1ae5dc4efb9202c49bba844c79 ""
  "/home/sil/texmf/tex/latex/appendix/appendix.sty" 1480098820 8526 d0d9b5e2dd0c996c69c3bd05eb25b943 ""
  "/home/sil/texmf/tex/latex/biblatex-ieee/ieee.bbx" 1534888321 19029 8e582308f5c2f075d18ed9fb5ea98d6f ""
  "/home/sil/texmf/tex/latex/biblatex/bbx/numeric-comp.bbx" 1342308459 92 7cdbb04a1e32fba0fbb91b6e6d123497 ""
  "/home/sil/texmf/tex/latex/biblatex/bbx/numeric.bbx" 1510525977 1672 30daac53a3b9ecb172365211fcaa2ba2 ""
  "/home/sil/texmf/tex/latex/biblatex/bbx/standard.bbx" 1520288152 24313 ff3a9a84addb7f5de285c708da15a926 ""
  "/home/sil/texmf/tex/latex/biblatex/biblatex.cfg" 1342308459 69 249fa6df04d948e51b6d5c67bea30c42 ""
  "/home/sil/texmf/tex/latex/biblatex/biblatex.def" 1541279461 88160 3e5d4380c6193d760acb623119b619af ""
  "/home/sil/texmf/tex/latex/biblatex/biblatex.sty" 1541279461 472411 c7eee3c619de18fb38cb898ed15ea61d ""
  "/home/sil/texmf/tex/latex/biblatex/blx-compat.def" 1514674017 13194 9fbd4a8c96337f2861e1135f26105b22 ""
  "/home/sil/texmf/tex/latex/biblatex/blx-dm.def" 1541279461 30950 d8285648220779301a06160f7b5b9b1b ""
  "/home/sil/texmf/tex/latex/biblatex/cbx/numeric.cbx" 1510525977 4578 2d37f6a8c72f47aacef79870545a713d ""
  "/home/sil/texmf/tex/latex/biblatex/lbx/english.lbx" 1541279461 37421 612a874b5d89d3e451f56bb8a6ac9615 ""
  "/home/sil/texmf/tex/latex/capt-of/capt-of.sty" 1480098823 1311 063f8536a047a2d9cb1803321f793f37 ""
  "/home/sil/texmf/tex/latex/enumitem/enumitem.sty" 1543614484 49620 efae1df9a29a357a1047f856275eae15 ""
  "/home/sil/texmf/tex/latex/fontaxes/fontaxes.sty" 1480098829 14170 4202cf11062745283a9a5fdc97c16c48 ""
  "/home/sil/texmf/tex/latex/framed/framed.sty" 1480098829 22449 7ec15c16d0d66790f28e90343c5434a3 ""
  "/home/sil/texmf/tex/latex/fvextra/fvextra.sty" 1499987360 50568 c2b40450dceec7d451285b9acd7d9214 ""
  "/home/sil/texmf/tex/latex/ifplatform/ifplatform.sty" 1507930826 3910 e04f6a6d983bdbdb024917b7ccc80262 ""
  "/home/sil/texmf/tex/latex/libertine/LinLibertine_I.tex" 1480098833 24957 22a8dc56372173d7ffa65753dfc6757e ""
  "/home/sil/texmf/tex/latex/libertine/T1LinuxBiolinumT-TLF.fd" 1490133672 2264 2324ece7d4d2a7fa3c2138d120196405 ""
  "/home/sil/texmf/tex/latex/libertine/T1LinuxLibertineMonoT-TLF.fd" 1490133672 1446 bda2b726e655908739e20b295937c867 ""
  "/home/sil/texmf/tex/latex/libertine/TS1LinuxBiolinumT-TLF.fd" 1490133672 1329 b3927c6411238357fc3ed8fd9bdc7eaa ""
  "/home/sil/texmf/tex/latex/libertine/libertine.sty" 1515109415 20418 d46c8495534245c6cf2a6c86983630c8 ""
  "/home/sil/texmf/tex/latex/libertinust1math/libertinust1math.sty" 1506027358 70615 77e3c0cb7fbaa20ad4aa385b5825ee3d ""
  "/home/sil/texmf/tex/latex/libertinust1math/ls1libertinust1math.fd" 1537563990 1736 a88dc46de39d1762bf28fbdcb81e1eba ""
  "/home/sil/texmf/tex/latex/libertinust1math/ls1libertinust1mathbb.fd" 1537563990 1170 51716c7ec5a32bf5c24a0196d992bf9b ""
  "/home/sil/texmf/tex/latex/libertinust1math/ls2libertinust1mathex.fd" 1537563990 1169 9cc6853ceb83b091b7b174e249f8f4c4 ""
  "/home/sil/texmf/tex/latex/libertinust1math/ls2libertinust1mathsym.fd" 1537563990 1191 613ceffac5cd5fe6a2c86352cf2b352f ""
  "/home/sil/texmf/tex/latex/logreq/logreq.def" 1480098833 1620 fb1c32b818f2058eca187e5c41dfae77 ""
  "/home/sil/texmf/tex/latex/logreq/logreq.sty" 1480098833 6187 b27afc771af565d3a9ff1ca7d16d0d46 ""
  "/home/sil/texmf/tex/latex/minted/minted.sty" 1500585774 47165 6a3e43a8d03bd86910a1dbf68d6c3645 ""
  "/home/sil/texmf/tex/latex/multirow/multirow.sty" 1546383059 5164 bcc9f9eb87b893f14f0e34388a369d7e ""
  "/home/sil/texmf/tex/latex/mweights/mweights.sty" 1490909540 4953 67f29a12ea26221103fce6bae3433e60 ""
  "/home/sil/texmf/tex/latex/placeins/placeins.sty" 1480098837 4087 636308456f60d2b31cbf97867db5708d ""
  "/home/sil/texmf/tex/latex/upquote/upquote.sty" 1480098842 1048 517e01cde97c1c0baf72e69d43aa5a2e ""
  "/home/sil/texmf/tex/latex/wrapfig/wrapfig.sty" 1480098843 26220 3701aebf80ccdef248c0c20dd062fea9 ""
  "/usr/share/texlive/texmf-dist/fonts/tfm/jknappen/ec/ecrm1000.tfm" 1480098696 3584 adb004a0c8e7c46ee66cad73671f37b4 ""
  "/usr/share/texlive/texmf-dist/fonts/tfm/public/amsfonts/symbols/msam10.tfm" 1480098698 916 f87d7c45f9c908e672703b83b72241a3 ""
  "/usr/share/texlive/texmf-dist/fonts/tfm/public/amsfonts/symbols/msam7.tfm" 1480098698 928 2dc8d444221b7a635bb58038579b861a ""
  "/usr/share/texlive/texmf-dist/fonts/tfm/public/amsfonts/symbols/msbm10.tfm" 1480098698 908 2921f8a10601f252058503cc6570e581 ""
  "/usr/share/texlive/texmf-dist/fonts/tfm/public/amsfonts/symbols/msbm7.tfm" 1480098698 940 228d6584342e91276bf566bcf9716b83 ""
  "/usr/share/texlive/texmf-dist/fonts/tfm/public/latex-fonts/lasy6.tfm" 1480098711 520 4889cce2180234b97cad636b6039c722 ""
  "/usr/share/texlive/texmf-dist/tex/context/base/mkii/supp-pdf.mkii" 1480098806 71627 94eb9990bed73c364d7f53f960cc8c5b ""
  "/usr/share/texlive/texmf-dist/tex/generic/babel-english/english.ldf" 1496785618 7008 9ff5fdcc865b01beca2b0fe4a46231d4 ""
  "/usr/share/texlive/texmf-dist/tex/generic/babel/babel.def" 1542149371 74097 730193adbb112990f38051a05f35ac11 ""
  "/usr/share/texlive/texmf-dist/tex/generic/babel/babel.sty" 1542149371 16329 4c42e43c85185e6cb0936a628ade375c ""
  "/usr/share/texlive/texmf-dist/tex/generic/babel/switch.def" 1542149371 13310 fcb0ad08386d450f0c718feed9fe2fee ""
  "/usr/share/texlive/texmf-dist/tex/generic/babel/txtbabel.def" 1528235896 7435 6c566fc19b3503b2b2da8bb4550f2b58 ""
  "/usr/share/texlive/texmf-dist/tex/generic/ifxetex/ifxetex.sty" 1480098815 1458 43ab4710dc82f3edeabecd0d099626b2 ""
  "/usr/share/texlive/texmf-dist/tex/generic/oberdiek/catchfile.sty" 1463608860 8493 e586100f117d095256a1a5c630c3fa25 ""
  "/usr/share/texlive/texmf-dist/tex/generic/oberdiek/etexcmds.sty" 1463608860 7612 729a8cc22a1ee0029997c7f74717ae05 ""
  "/usr/share/texlive/texmf-dist/tex/generic/oberdiek/gettitlestring.sty" 1463608860 8237 3b62ef1f7e2c23a328c814b3893bc11f ""
  "/usr/share/texlive/texmf-dist/tex/generic/oberdiek/hobsub-generic.sty" 1536701967 185392 b99a6d53180e04300c35e18725f31231 ""
  "/usr/share/texlive/texmf-dist/tex/generic/oberdiek/hobsub-hyperref.sty" 1465595255 70864 bcd5b216757bd619ae692a151d90085d ""
  "/usr/share/texlive/texmf-dist/tex/generic/oberdiek/ifluatex.sty" 1463608860 7324 2310d1247db0114eb4726807c8837a0e ""
  "/usr/share/texlive/texmf-dist/tex/generic/oberdiek/ifpdf.sty" 1536443070 1300 96620a7d94bc0ceb261d968770ce8315 ""
  "/usr/share/texlive/texmf-dist/tex/generic/oberdiek/ifvtex.sty" 1463608860 6797 90b7f83b0ad46826bc16058b1e3d48df ""
  "/usr/share/texlive/texmf-dist/tex/generic/oberdiek/infwarerr.sty" 1463608860 8253 473e0e41f9adadb1977e8631b8f72ea6 ""
  "/usr/share/texlive/texmf-dist/tex/generic/oberdiek/kvsetkeys.sty" 1463608860 14040 ac8866aac45982ac84021584b0abb252 ""
  "/usr/share/texlive/texmf-dist/tex/generic/oberdiek/ltxcmds.sty" 1463608860 18425 5b3c0c59d76fac78978b5558e83c1f36 ""
  "/usr/share/texlive/texmf-dist/tex/generic/oberdiek/pdftexcmds.sty" 1536701967 20457 0d2e642faacbb41c9d72690f8cc529cd ""
  "/usr/share/texlive/texmf-dist/tex/generic/xkeyval/xkeyval.tex" 1480098819 19231 26434a5656c684f5ffb1f26f98006baa ""
  "/usr/share/texlive/texmf-dist/tex/generic/xkeyval/xkvutils.tex" 1480098819 7677 6f5ce7c1124cad7ec57d05b2562bd8fe ""
  "/usr/share/texlive/texmf-dist/tex/latex/amsfonts/amsfonts.sty" 1480098820 5949 3f3fd50a8cc94c3d4cbf4fc66cd3df1c ""
  "/usr/share/texlive/texmf-dist/tex/latex/amsfonts/amssymb.sty" 1480098820 13829 94730e64147574077f8ecfea9bb69af4 ""
  "/usr/share/texlive/texmf-dist/tex/latex/amsfonts/umsa.fd" 1480098820 961 6518c6525a34feb5e8250ffa91731cff ""
  "/usr/share/texlive/texmf-dist/tex/latex/amsfonts/umsb.fd" 1480098820 961 d02606146ba5601b5645f987c92e6193 ""
  "/usr/share/texlive/texmf-dist/tex/latex/amsmath/amsbsy.sty" 1523134290 2211 ca7ce284ab93c8eecdc6029dc5ccbd73 ""
  "/usr/share/texlive/texmf-dist/tex/latex/amsmath/amsgen.sty" 1523134290 4161 7f6eb9092061a11f87d08ed13515b48d ""
  "/usr/share/texlive/texmf-dist/tex/latex/amsmath/amsmath.sty" 1544567569 85093 77cfa18ddbae4d9b74ade33d843686d3 ""
  "/usr/share/texlive/texmf-dist/tex/latex/amsmath/amsopn.sty" 1523134290 4116 32e6abd27229755a83a8b7f18e583890 ""
  "/usr/share/texlive/texmf-dist/tex/latex/amsmath/amstext.sty" 1523134290 2432 8ff93b1137020e8f21930562a874ae66 ""
  "/usr/share/texlive/texmf-dist/tex/latex/base/article.cls" 1544567569 19933 3097d1b31d3c45dc957096f554529032 ""
  "/usr/share/texlive/texmf-dist/tex/latex/base/fontenc.sty" 1544567569 4573 e9e01f5b11821a77b916dad378cb86b8 ""
  "/usr/share/texlive/texmf-dist/tex/latex/base/ifthen.sty" 1523050425 5161 c004ea5a189d4bdcf42e86754ad75a58 ""
  "/usr/share/texlive/texmf-dist/tex/latex/base/inputenc.sty" 1544567569 5052 b64c57f4a38aae0d2745f8298fa50814 ""
  "/usr/share/texlive/texmf-dist/tex/latex/base/size10.clo" 1544567569 8294 6d6e23d5169c0d89d173f6c7e08a005a ""
  "/usr/share/texlive/texmf-dist/tex/latex/base/t1enc.def" 1544567569 10689 ce0f2353f9a1f42b29f591f3fe8e040a ""
  "/usr/share/texlive/texmf-dist/tex/latex/base/textcomp.sty" 1544567569 16156 a293f9cfd4f8552bb5d1028389f53e72 ""
  "/usr/share/texlive/texmf-dist/tex/latex/base/ts1cmr.fd" 1523050425 2433 cdefd2509a12ba58001f2024f63aae9a ""
  "/usr/share/texlive/texmf-dist/tex/latex/base/ts1enc.def" 1523050425 7769 97b639552068544f7c98d557abb19f41 ""
  "/usr/share/texlive/texmf-dist/tex/latex/base/ts1enc.dfu" 1544567569 4973 923be56c54607ca99f7cc085a8c7e52b ""
  "/usr/share/texlive/texmf-dist/tex/latex/booktabs/booktabs.sty" 1480098823 5869 94335281ffcab47f341cf07ea8220e30 ""
  "/usr/share/texlive/texmf-dist/tex/latex/colortbl/colortbl.sty" 1544741426 10678 47854138cd4fdca1d7b24b0290c999d4 ""
  "/usr/share/texlive/texmf-dist/tex/latex/etoolbox/etoolbox.sty" 1534713891 43865 f83cc2fa3767abdb988c7d2cd17c02bf ""
  "/usr/share/texlive/texmf-dist/tex/latex/fancyhdr/fancyhdr.sty" 1498861448 10663 d7fcc0dc4f35e8998b8cfeef8407d37d ""
  "/usr/share/texlive/texmf-dist/tex/latex/fancyvrb/fancyvrb.sty" 1542751250 42732 f759a2e1d8b928f877132117678773f3 ""
  "/usr/share/texlive/texmf-dist/tex/latex/float/float.sty" 1480098828 6749 16d2656a1984957e674b149555f1ea1d ""
  "/usr/share/texlive/texmf-dist/tex/latex/geometry/geometry.sty" 1525727744 41645 0653033a985e06c69a2a9cea9a95e31a ""
  "/usr/share/texlive/texmf-dist/tex/latex/graphics-cfg/color.cfg" 1480098830 1213 620bba36b25224fa9b7e1ccb4ecb76fd ""
  "/usr/share/texlive/texmf-dist/tex/latex/graphics-cfg/graphics.cfg" 1480098830 1224 978390e9c2234eab29404bc21b268d1e ""
  "/usr/share/texlive/texmf-dist/tex/latex/graphics-def/pdftex.def" 1515537368 17334 520b9b85ad8a2a48eda3f643e27a5179 ""
  "/usr/share/texlive/texmf-dist/tex/latex/graphics/graphics.sty" 1523134385 15272 5a97061616e0c8b2aa79c6615ff769f4 ""
  "/usr/share/texlive/texmf-dist/tex/latex/graphics/graphicx.sty" 1523134385 9063 d0a305975932762117cd1f06a582f896 ""
  "/usr/share/texlive/texmf-dist/tex/latex/graphics/keyval.sty" 1523134385 2591 6404d0c7d28505fb38ce0d86c2e28ae7 ""
  "/usr/share/texlive/texmf-dist/tex/latex/graphics/rotating.sty" 1523134385 6966 6f46d3aa8066c4205b8f244817b24ed7 ""
  "/usr/share/texlive/texmf-dist/tex/latex/graphics/trig.sty" 1523134385 3977 cb9221976ed8a183afad65b59aa8629a ""
  "/usr/share/texlive/texmf-dist/tex/latex/hyperref/hpdftex.def" 1543704539 51744 477aad43ad6a7ba8c462d20c3e0808e0 ""
  "/usr/share/texlive/texmf-dist/tex/latex/hyperref/hyperref.sty" 1543704539 236074 d994150943d35d6af0d586a60cc78dd1 ""
  "/usr/share/texlive/texmf-dist/tex/latex/hyperref/nameref.sty" 1465687530 12949 81e4e808884a8f0e276b69410e234656 ""
  "/usr/share/texlive/texmf-dist/tex/latex/hyperref/pd1enc.def" 1543704539 14098 b4e1ecab4699a0341b8e1349e4c53fb1 ""
  "/usr/share/texlive/texmf-dist/tex/latex/latexconfig/epstopdf-sys.cfg" 1480098833 678 4792914a8f45be57bb98413425e4c7af ""
  "/usr/share/texlive/texmf-dist/tex/latex/latexconfig/hyperref.cfg" 1480098833 235 6031e5765137be07eed51a510b2b8fb7 ""
  "/usr/share/texlive/texmf-dist/tex/latex/lineno/lineno.sty" 1480098833 151738 8cd767481920f0eb785302dacfc87057 ""
  "/usr/share/texlive/texmf-dist/tex/latex/mathtools/mathtools.sty" 1515449928 53430 0411f0481da6078e76fd7de46531d2e0 ""
  "/usr/share/texlive/texmf-dist/tex/latex/mathtools/mhsetup.sty" 1496786006 5317 cf75154a8a7e6436f05a5be497f0b05e ""
  "/usr/share/texlive/texmf-dist/tex/latex/microtype/microtype-pdftex.def" 1516054892 48846 b8c9ed2ca71a7e344e0f79f738d33d61 ""
  "/usr/share/texlive/texmf-dist/tex/latex/microtype/microtype.cfg" 1516054892 24263 58b62b9b15af10c2a301a884405289a4 ""
  "/usr/share/texlive/texmf-dist/tex/latex/microtype/microtype.sty" 1516054892 71031 8c1efead07338247d562f79303165b66 ""
  "/usr/share/texlive/texmf-dist/tex/latex/microtype/mt-msa.cfg" 1516054892 5893 b1115f9ad37c7e9840952f06293b6f67 ""
  "/usr/share/texlive/texmf-dist/tex/latex/microtype/mt-msb.cfg" 1516054892 5558 dabcbec7f6275abd8697b8330d706a08 ""
  "/usr/share/texlive/texmf-dist/tex/latex/oberdiek/auxhook.sty" 1463608860 3834 4363110eb0ef1eb2b71c8fcbcdb6c357 ""
  "/usr/share/texlive/texmf-dist/tex/latex/oberdiek/epstopdf-base.sty" 1463608860 12095 5337833c991d80788a43d3ce26bd1c46 ""
  "/usr/share/texlive/texmf-dist/tex/latex/oberdiek/grfext.sty" 1463608860 7075 2fe3d848bba95f139de11ded085e74aa ""
  "/usr/share/texlive/texmf-dist/tex/latex/oberdiek/grffile.sty" 1517006633 13734 a9eb1247dae8f1d7566d4f438f82a6c5 ""
  "/usr/share/texlive/texmf-dist/tex/latex/oberdiek/kvoptions.sty" 1463608860 22417 1d9df1eb66848aa31b18a593099cf45c ""
  "/usr/share/texlive/texmf-dist/tex/latex/oberdiek/rerunfilecheck.sty" 1463608860 9581 023642318cef9f4677efe364de1e2a27 ""
  "/usr/share/texlive/texmf-dist/tex/latex/tools/array.sty" 1544567569 12510 83033a46541e4a36a2514de98c273039 ""
  "/usr/share/texlive/texmf-dist/tex/latex/tools/calc.sty" 1523050425 10212 357072c1d20578a30d6387d8a22e72ab ""
  "/usr/share/texlive/texmf-dist/tex/latex/tools/longtable.sty" 1523050425 12081 a8103ee8653c06c3c5b3fb138f20b5e5 ""
  "/usr/share/texlive/texmf-dist/tex/latex/tools/multicol.sty" 1544567569 30918 22ab1c44b623246bf4f603810a5a26f6 ""
  "/usr/share/texlive/texmf-dist/tex/latex/tools/shellesc.sty" 1523050425 3268 77605a04b5525f60d58f55c47c0771c5 ""
  "/usr/share/texlive/texmf-dist/tex/latex/url/url.sty" 1480098842 12796 8edb7d69a20b857904dd0ea757c14ec9 ""
  "/usr/share/texlive/texmf-dist/tex/latex/xcolor/xcolor.sty" 1480098843 55589 34128738f682d033422ca125f82e5d62 ""
  "/usr/share/texlive/texmf-dist/tex/latex/xkeyval/xkeyval.sty" 1480098843 4962 9c1069474ff71dbc47d5006555e352d3 ""
  "/usr/share/texlive/texmf-dist/web2c/texmf.cnf" 1544763492 34566 ab5be96bde1a5acfd4f881dbe566b5fb ""
  "/usr/share/texmf/web2c/texmf.cnf" 1544763492 34566 ab5be96bde1a5acfd4f881dbe566b5fb ""
  "/var/lib/texmf/web2c/pdftex/pdflatex.fmt" 1545732451 2427154 5511eec0f269b413169cf0fb84b8b80f ""
  "build/resProtocol.aux" 1546539380 27379 50e80c4192d53e8b97402526c47baaaf ""
  "build/resProtocol.bbl" 1546539374 16643 1ba9368d4b21ce200339612ec39cffcb "biber build/resProtocol"
  "build/resProtocol.out" 1546539380 1956 b236cf5125ee167dfab12174197d78dd ""
  "build/resProtocol.run.xml" 1546539380 2425 654f917318c0eb61201b687aa05b1322 ""
  "build/resProtocol.toc" 1546539380 5784 e3145607dbb4d3444d99971ba2db2dee ""
  "images/16-QAM.png" 1546453867 41409 dde40468e593fe3f73cfd4d203d89138 ""
  "images/Frequenzmultiplex001.svg.png" 1546453867 58900 1b3910fd44374cb49b92018c52fcc0dd ""
  "images/LDPC_fragment.png" 1546514976 5589 c5a78f518e767c561ded92ef480bb7c9 ""
  "images/NuBusTransaction.png" 1542795447 58392 3e8e86070e5d02c73462608b743a9336 ""
  "images/fwDCCode.png" 1546346967 65642 c31fba423ad5a0c410462f157127502e ""
  "images/fwStrobeData.png" 1546347053 81522 41c8aed9805d96f4742e5d7444b73583 ""
  "images/fwTP.png" 1546347323 158615 bc77a4101b68a0bf99270d75a216a2a1 ""
  "images/fwaddress.png" 1546338431 1069 de8138a934d6da3dc7209bf44b06e15f ""
  "images/fwmodule.jpg" 1546295102 17008 91b9641f23e32ae25505f96ef05b0734 ""
  "images/galois-field.png" 1546534602 34155 a35bc189fa4582fd672aa61c7d6780ac ""
  "images/idealised_overlapping.png" 1546534602 66054 e31b191598b35175e972a8103a5541e7 ""
  "images/knx_character.png" 1546534602 7478 d66b6e6c612d830487071c9b4ff1b6a9 ""
  "images/knx_signal_encoding.png" 1546534602 46360 6fa84d61054802fa44c2ea03d4989596 ""
  "images/nubusdiag.png" 1546516536 79472 6518566c25797558e0e6933886a1d43a ""
  "images/ofdm-subcarriers.png" 1546453867 158048 fa37af96c60122decb24fd3dfdb5e008 ""
  "images/pc16BIOTim.png" 1546202817 11222 7fcd6d36ba5fc6946190194894013db0 ""
  "images/pc16BMemTim.png" 1546202851 17578 b9c29454d70e00f44aae0d4731aacb00 ""
  "images/pc8BMemIOTim.png" 1546202902 14495 285612f0e0b768e873753d84250d8998 ""
  "images/pcDMATim.png" 1546202940 15473 768db8b3d89362dfa13ea104fb57a7a2 ""
  "images/plc.jpg" 1546453867 75187 1ba71fb8813d849e1b2e0b0804e1e86f ""
  "images/qam_time.png" 1546514976 73220 fef93cce700886c71659c5236404730a ""
  "images/structure_acknowlege.png" 1546534602 20186 b8c68c6143d4428ecde8e8e1502c1393 ""
  "images/structure_of_the_mau.png" 1546534602 64538 664308251d880207305fffaddd8e8827 ""
  "images/syndromes_erros.png" 1546534602 15138 0d08aed6abaf56d129b4f7b7c19301ea ""
  "images/tanner_graph_empty.png" 1546514976 15833 66ee8c235a01481eae0ebb1f44a2589b ""
  "images/tanner_graph_error.png" 1546514976 18541 ca726c87c1ca1ced3fc7e9c085b8834b ""
  "images/tanner_graph_filled.png" 1546514976 19242 af600a59e9fab0a8982bd6c89b52dc39 ""
  "images/tanner_graph_fixed.png" 1546514976 19242 af600a59e9fab0a8982bd6c89b52dc39 ""
  "images/telenet_power_line.png" 1546453867 107006 0e1cdf7c5b14c9dbdbe50573e268043d ""
  "includes/final_conclusion.tex" 1546537127 1538 afd3bffb04fc0ec2cc859aa17e62fc20 ""
  "includes/firewire.tex" 1546534815 9057 40738fb64a9264c7e06f2df56f28d87d ""
  "includes/intro.tex" 1546524353 1117 38ee3725b3f417670e4944f941a73895 ""
  "includes/knx.tex" 1546534602 7419 114f1fc4f27e453592c38403271c0644 ""
  "includes/nubus.tex" 1546526279 6860 a40385ba8cfee03ccf91917364fc80e4 ""
  "includes/pc104.tex" 1546539354 16051 d9875bfed32f59c42cbb5849c19ad1aa ""
  "includes/power-line_communications.tex" 1546534602 16614 7b3ff06bf20a6b393dbd397375865f6a ""
  "resProtocol.tex" 1546533697 4834 ba446efcf1d6928a6d9f5aecb712cb77 ""
  (generated)
  "build/resProtocol.toc"
  "build/resProtocol.bbl"
  "build/resProtocol.log"
  "build/resProtocol.aux"
  "build/resProtocol.bcf"
  "build/resProtocol.out"
  "build/resProtocol.blg"
  "build/resProtocol.run.xml"
  "build/resProtocol.pdf"
