\relax 
\providecommand\hyper@newdestlabel[2]{}
\providecommand\HyperFirstAtBeginDocument{\AtBeginDocument}
\HyperFirstAtBeginDocument{\ifx\hyper@anchor\@undefined
\global\let\oldcontentsline\contentsline
\gdef\contentsline#1#2#3#4{\oldcontentsline{#1}{#2}{#3}}
\global\let\oldnewlabel\newlabel
\gdef\newlabel#1#2{\newlabelxx{#1}#2}
\gdef\newlabelxx#1#2#3#4#5#6{\oldnewlabel{#1}{{#2}{#3}}}
\AtEndDocument{\ifx\hyper@anchor\@undefined
\let\contentsline\oldcontentsline
\let\newlabel\oldnewlabel
\fi}
\fi}
\global\let\hyper@last\relax 
\gdef\HyperFirstAtBeginDocument#1{#1}
\providecommand\HyField@AuxAddToFields[1]{}
\providecommand\HyField@AuxAddToCoFields[2]{}
\abx@aux@refcontext{none/global//global/global}
\@writefile{toc}{\boolfalse {citerequest}\boolfalse {citetracker}\boolfalse {pagetracker}\boolfalse {backtracker}\relax }
\@writefile{lof}{\boolfalse {citerequest}\boolfalse {citetracker}\boolfalse {pagetracker}\boolfalse {backtracker}\relax }
\@writefile{lot}{\boolfalse {citerequest}\boolfalse {citetracker}\boolfalse {pagetracker}\boolfalse {backtracker}\relax }
\babel@aux{english}{}
\@writefile{toc}{\defcounter {refsection}{0}\relax }\@writefile{toc}{\contentsline {section}{\numberline {1}Introduction}{2}{section.1}\protected@file@percent }
\newlabel{sec:intro}{{1}{2}{Introduction}{section.1}{}}
\abx@aux@cite{fwjaycar}
\abx@aux@segm{0}{0}{fwjaycar}
\abx@aux@cite{fwSpec}
\abx@aux@segm{0}{0}{fwSpec}
\abx@aux@cite{fwlinux}
\abx@aux@segm{0}{0}{fwlinux}
\abx@aux@segm{0}{0}{fwlinux}
\@writefile{toc}{\defcounter {refsection}{0}\relax }\@writefile{toc}{\contentsline {section}{\numberline {2}FireWire}{3}{section.2}\protected@file@percent }
\newlabel{sec:firewire}{{2}{3}{FireWire}{section.2}{}}
\@writefile{toc}{\defcounter {refsection}{0}\relax }\@writefile{toc}{\contentsline {subsection}{\numberline {2.1}Terminology}{3}{subsection.2.1}\protected@file@percent }
\newlabel{ssec:fwterm}{{2.1}{3}{Terminology}{subsection.2.1}{}}
\abx@aux@segm{0}{0}{fwlinux}
\abx@aux@segm{0}{0}{fwlinux}
\abx@aux@segm{0}{0}{fwlinux}
\abx@aux@segm{0}{0}{fwlinux}
\abx@aux@segm{0}{0}{fwlinux}
\abx@aux@segm{0}{0}{fwjaycar}
\@writefile{lof}{\defcounter {refsection}{0}\relax }\@writefile{lof}{\contentsline {figure}{\numberline {1}{\ignorespaces Module architecture \cite {fwlinux}}}{4}{figure.1}\protected@file@percent }
\newlabel{fig:fwmodule}{{1}{4}{Module architecture \cite {fwlinux}}{figure.1}{}}
\@writefile{toc}{\defcounter {refsection}{0}\relax }\@writefile{toc}{\contentsline {subsection}{\numberline {2.2}Address Space}{4}{subsection.2.2}\protected@file@percent }
\newlabel{ssec:fwadd}{{2.2}{4}{Address Space}{subsection.2.2}{}}
\@writefile{lof}{\defcounter {refsection}{0}\relax }\@writefile{lof}{\contentsline {figure}{\numberline {2}{\ignorespaces 1394 64-bit Address \cite {fwlinux}}}{4}{figure.2}\protected@file@percent }
\newlabel{fig:fwaddress}{{2}{4}{1394 64-bit Address \cite {fwlinux}}{figure.2}{}}
\@writefile{toc}{\defcounter {refsection}{0}\relax }\@writefile{toc}{\contentsline {subsection}{\numberline {2.3}Transfer}{4}{subsection.2.3}\protected@file@percent }
\newlabel{ssec:fwtrans}{{2.3}{4}{Transfer}{subsection.2.3}{}}
\@writefile{toc}{\defcounter {refsection}{0}\relax }\@writefile{toc}{\contentsline {subsection}{\numberline {2.4}Line coding}{4}{subsection.2.4}\protected@file@percent }
\newlabel{ssec:fwlinec}{{2.4}{4}{Line coding}{subsection.2.4}{}}
\abx@aux@segm{0}{0}{fwjaycar}
\abx@aux@segm{0}{0}{fwjaycar}
\abx@aux@segm{0}{0}{fwjaycar}
\abx@aux@segm{0}{0}{fwjaycar}
\@writefile{lof}{\defcounter {refsection}{0}\relax }\@writefile{lof}{\contentsline {figure}{\numberline {3}{\ignorespaces DS Coding \cite {fwjaycar}}}{5}{figure.3}\protected@file@percent }
\newlabel{fig:fwds}{{3}{5}{DS Coding \cite {fwjaycar}}{figure.3}{}}
\@writefile{toc}{\defcounter {refsection}{0}\relax }\@writefile{toc}{\contentsline {subsection}{\numberline {2.5}Twisted pairs}{5}{subsection.2.5}\protected@file@percent }
\newlabel{ssec:fwtp}{{2.5}{5}{Twisted pairs}{subsection.2.5}{}}
\abx@aux@segm{0}{0}{fwjaycar}
\abx@aux@segm{0}{0}{fwjaycar}
\abx@aux@segm{0}{0}{fwjaycar}
\abx@aux@segm{0}{0}{fwlinux}
\abx@aux@segm{0}{0}{fwlinux}
\@writefile{lof}{\defcounter {refsection}{0}\relax }\@writefile{lof}{\contentsline {figure}{\numberline {4}{\ignorespaces Strobe and Data signals \cite {fwjaycar}}}{6}{figure.4}\protected@file@percent }
\newlabel{fig:fwstrobedata}{{4}{6}{Strobe and Data signals \cite {fwjaycar}}{figure.4}{}}
\@writefile{lof}{\defcounter {refsection}{0}\relax }\@writefile{lof}{\contentsline {figure}{\numberline {5}{\ignorespaces Primary type of IEEE 1394 cable \cite {fwjaycar}}}{6}{figure.5}\protected@file@percent }
\newlabel{fig:fwtp}{{5}{6}{Primary type of IEEE 1394 cable \cite {fwjaycar}}{figure.5}{}}
\@writefile{toc}{\defcounter {refsection}{0}\relax }\@writefile{toc}{\contentsline {subsection}{\numberline {2.6}Arbitration}{6}{subsection.2.6}\protected@file@percent }
\newlabel{ssec:fwarb}{{2.6}{6}{Arbitration}{subsection.2.6}{}}
\abx@aux@segm{0}{0}{fwlinux}
\@writefile{toc}{\defcounter {refsection}{0}\relax }\@writefile{toc}{\contentsline {subsection}{\numberline {2.7}Conclusion}{7}{subsection.2.7}\protected@file@percent }
\abx@aux@cite{nubusMac}
\abx@aux@segm{0}{0}{nubusMac}
\abx@aux@cite{ieeeNubus}
\abx@aux@segm{0}{0}{ieeeNubus}
\abx@aux@cite{nubusSpec}
\abx@aux@segm{0}{0}{nubusSpec}
\@writefile{toc}{\defcounter {refsection}{0}\relax }\@writefile{toc}{\contentsline {section}{\numberline {3}NuBus}{8}{section.3}\protected@file@percent }
\newlabel{sec:nubus}{{3}{8}{NuBus}{section.3}{}}
\@writefile{toc}{\defcounter {refsection}{0}\relax }\@writefile{toc}{\contentsline {subsection}{\numberline {3.1}Background}{8}{subsection.3.1}\protected@file@percent }
\newlabel{ssec:nubusBack}{{3.1}{8}{Background}{subsection.3.1}{}}
\@writefile{lof}{\defcounter {refsection}{0}\relax }\@writefile{lof}{\contentsline {figure}{\numberline {6}{\ignorespaces Simplified NuBus diagram \cite {nubusSpec}}}{8}{figure.6}\protected@file@percent }
\newlabel{fig:nubusdiag}{{6}{8}{Simplified NuBus diagram \cite {nubusSpec}}{figure.6}{}}
\@writefile{toc}{\defcounter {refsection}{0}\relax }\@writefile{toc}{\contentsline {subsection}{\numberline {3.2}Specifications}{9}{subsection.3.2}\protected@file@percent }
\newlabel{ssec:nubusSpec}{{3.2}{9}{Specifications}{subsection.3.2}{}}
\@writefile{lot}{\defcounter {refsection}{0}\relax }\@writefile{lot}{\contentsline {table}{\numberline {1}{\ignorespaces NuBus Pin Assignment}}{9}{table.1}\protected@file@percent }
\newlabel{tab:nupin}{{1}{9}{NuBus Pin Assignment}{table.1}{}}
\abx@aux@segm{0}{0}{nubusMac}
\abx@aux@segm{0}{0}{nubusMac}
\abx@aux@segm{0}{0}{nubusMac}
\@writefile{lot}{\defcounter {refsection}{0}\relax }\@writefile{lot}{\contentsline {table}{\numberline {2}{\ignorespaces NuBus signals}}{10}{table.2}\protected@file@percent }
\newlabel{tab:nusig}{{2}{10}{NuBus signals}{table.2}{}}
\@writefile{toc}{\defcounter {refsection}{0}\relax }\@writefile{toc}{\contentsline {subsection}{\numberline {3.3}NuBus transaction}{10}{subsection.3.3}\protected@file@percent }
\newlabel{ssec:nubustrans}{{3.3}{10}{NuBus transaction}{subsection.3.3}{}}
\@writefile{lof}{\defcounter {refsection}{0}\relax }\@writefile{lof}{\contentsline {figure}{\numberline {7}{\ignorespaces NuBus signal timing \cite {nubusMac}}}{10}{figure.7}\protected@file@percent }
\newlabel{fig:nubustrans}{{7}{10}{NuBus signal timing \cite {nubusMac}}{figure.7}{}}
\@writefile{toc}{\defcounter {refsection}{0}\relax }\@writefile{toc}{\contentsline {subsection}{\numberline {3.4}Conclusion}{11}{subsection.3.4}\protected@file@percent }
\newlabel{ssec:nubusconc}{{3.4}{11}{Conclusion}{subsection.3.4}{}}
\abx@aux@cite{pc104Spec}
\abx@aux@segm{0}{0}{pc104Spec}
\abx@aux@segm{0}{0}{pc104Spec}
\@writefile{toc}{\defcounter {refsection}{0}\relax }\@writefile{toc}{\contentsline {section}{\numberline {4}PC/104 bus}{12}{section.4}\protected@file@percent }
\newlabel{sec:pc104}{{4}{12}{PC/104 bus}{section.4}{}}
\@writefile{toc}{\defcounter {refsection}{0}\relax }\@writefile{toc}{\contentsline {subsection}{\numberline {4.1}Signal Line Definition}{12}{subsection.4.1}\protected@file@percent }
\newlabel{ssec:pc104sigdef}{{4.1}{12}{Signal Line Definition}{subsection.4.1}{}}
\@writefile{toc}{\defcounter {refsection}{0}\relax }\@writefile{toc}{\contentsline {subsubsection}{\numberline {4.1.1}Address and data \cite {pc104Spec}}{12}{subsubsection.4.1.1}\protected@file@percent }
\@writefile{toc}{\defcounter {refsection}{0}\relax }\@writefile{toc}{\contentsline {subsubsection}{\numberline {4.1.2}Cycle Control \cite {pc104Spec}}{12}{subsubsection.4.1.2}\protected@file@percent }
\abx@aux@segm{0}{0}{pc104Spec}
\abx@aux@segm{0}{0}{pc104Spec}
\abx@aux@segm{0}{0}{pc104Spec}
\abx@aux@cite{ISAEISA}
\abx@aux@segm{0}{0}{ISAEISA}
\@writefile{toc}{\defcounter {refsection}{0}\relax }\@writefile{toc}{\contentsline {subsubsection}{\numberline {4.1.3}Bus Control \cite {pc104Spec}}{13}{subsubsection.4.1.3}\protected@file@percent }
\@writefile{toc}{\defcounter {refsection}{0}\relax }\@writefile{toc}{\contentsline {subsubsection}{\numberline {4.1.4}Interrupt \cite {pc104Spec}}{13}{subsubsection.4.1.4}\protected@file@percent }
\@writefile{toc}{\defcounter {refsection}{0}\relax }\@writefile{toc}{\contentsline {subsubsection}{\numberline {4.1.5}DMA \cite {pc104Spec}}{13}{subsubsection.4.1.5}\protected@file@percent }
\abx@aux@cite{isaHWB}
\abx@aux@segm{0}{0}{isaHWB}
\abx@aux@segm{0}{0}{isaHWB}
\abx@aux@segm{0}{0}{isaHWB}
\abx@aux@segm{0}{0}{isaHWB}
\abx@aux@cite{pc104Tim}
\abx@aux@segm{0}{0}{pc104Tim}
\@writefile{lot}{\defcounter {refsection}{0}\relax }\@writefile{lot}{\contentsline {table}{\numberline {3}{\ignorespaces PC/104 Pin Assignment \cite {ISAEISA}}}{14}{table.3}\protected@file@percent }
\newlabel{tab:PCpin}{{3}{14}{PC/104 Pin Assignment \cite {ISAEISA}}{table.3}{}}
\@writefile{toc}{\defcounter {refsection}{0}\relax }\@writefile{toc}{\contentsline {subsection}{\numberline {4.2}Signal Timing}{14}{subsection.4.2}\protected@file@percent }
\newlabel{ssec:pc104sigtim}{{4.2}{14}{Signal Timing}{subsection.4.2}{}}
\@writefile{toc}{\defcounter {refsection}{0}\relax }\@writefile{toc}{\contentsline {subsubsection}{\numberline {4.2.1}8-bit memory and I/O timing}{14}{subsubsection.4.2.1}\protected@file@percent }
\abx@aux@segm{0}{0}{isaHWB}
\abx@aux@segm{0}{0}{isaHWB}
\abx@aux@segm{0}{0}{isaHWB}
\abx@aux@segm{0}{0}{isaHWB}
\abx@aux@segm{0}{0}{isaHWB}
\abx@aux@segm{0}{0}{isaHWB}
\abx@aux@segm{0}{0}{pc104Tim}
\@writefile{lof}{\defcounter {refsection}{0}\relax }\@writefile{lof}{\contentsline {figure}{\numberline {8}{\ignorespaces PC/104 8-bit Memory and I/O Timing \cite {pc104Tim}}}{15}{figure.8}\protected@file@percent }
\newlabel{fig:pc8BIOMem}{{8}{15}{PC/104 8-bit Memory and I/O Timing \cite {pc104Tim}}{figure.8}{}}
\@writefile{toc}{\defcounter {refsection}{0}\relax }\@writefile{toc}{\contentsline {subsubsection}{\numberline {4.2.2}16-bit memory and I/O timing}{15}{subsubsection.4.2.2}\protected@file@percent }
\abx@aux@segm{0}{0}{pc104Tim}
\abx@aux@segm{0}{0}{isaHWB}
\@writefile{lof}{\defcounter {refsection}{0}\relax }\@writefile{lof}{\contentsline {figure}{\numberline {9}{\ignorespaces PC/104 16-bit Memory Timing \cite {pc104Tim}}}{16}{figure.9}\protected@file@percent }
\newlabel{fig:pc16BMem}{{9}{16}{PC/104 16-bit Memory Timing \cite {pc104Tim}}{figure.9}{}}
\@writefile{lof}{\defcounter {refsection}{0}\relax }\@writefile{lof}{\contentsline {figure}{\numberline {10}{\ignorespaces PC/104 16-bit I/O Timing \cite {pc104Tim}}}{16}{figure.10}\protected@file@percent }
\newlabel{fig:pc16BIO}{{10}{16}{PC/104 16-bit I/O Timing \cite {pc104Tim}}{figure.10}{}}
\abx@aux@segm{0}{0}{isaHWB}
\abx@aux@segm{0}{0}{isaHWB}
\abx@aux@segm{0}{0}{isaHWB}
\abx@aux@segm{0}{0}{isaHWB}
\abx@aux@segm{0}{0}{pc104Tim}
\@writefile{toc}{\defcounter {refsection}{0}\relax }\@writefile{toc}{\contentsline {subsubsection}{\numberline {4.2.3}DMA read and write}{17}{subsubsection.4.2.3}\protected@file@percent }
\@writefile{lof}{\defcounter {refsection}{0}\relax }\@writefile{lof}{\contentsline {figure}{\numberline {11}{\ignorespaces PC/104 DMA Timing \cite {pc104Tim}}}{18}{figure.11}\protected@file@percent }
\newlabel{fig:pcDMA}{{11}{18}{PC/104 DMA Timing \cite {pc104Tim}}{figure.11}{}}
\@writefile{toc}{\defcounter {refsection}{0}\relax }\@writefile{toc}{\contentsline {subsection}{\numberline {4.3}PC/104 conclusion}{18}{subsection.4.3}\protected@file@percent }
\newlabel{ssec:pcConc}{{4.3}{18}{PC/104 conclusion}{subsection.4.3}{}}
\abx@aux@cite{wikiPowerLineCom}
\abx@aux@segm{0}{0}{wikiPowerLineCom}
\abx@aux@cite{wiki_HomePlug}
\abx@aux@segm{0}{0}{wiki_HomePlug}
\abx@aux@cite{wiki_IEEE1901}
\abx@aux@segm{0}{0}{wiki_IEEE1901}
\abx@aux@cite{wiki_Ghn}
\abx@aux@segm{0}{0}{wiki_Ghn}
\abx@aux@segm{0}{0}{wiki_Ghn}
\abx@aux@cite{linusTechTips}
\abx@aux@segm{0}{0}{linusTechTips}
\abx@aux@cite{PLCPicture}
\abx@aux@segm{0}{0}{PLCPicture}
\abx@aux@segm{0}{0}{wiki_Ghn}
\abx@aux@cite{telenetPowerLineAdapter}
\abx@aux@segm{0}{0}{telenetPowerLineAdapter}
\abx@aux@segm{0}{0}{telenetPowerLineAdapter}
\@writefile{toc}{\defcounter {refsection}{0}\relax }\@writefile{toc}{\contentsline {section}{\numberline {5}Power-line communication}{19}{section.5}\protected@file@percent }
\newlabel{sec:powerline}{{5}{19}{Power-line communication}{section.5}{}}
\@writefile{toc}{\defcounter {refsection}{0}\relax }\@writefile{toc}{\contentsline {subsection}{\numberline {5.1}G.hn}{19}{subsection.5.1}\protected@file@percent }
\newlabel{ssec:ghn}{{5.1}{19}{G.hn}{subsection.5.1}{}}
\@writefile{toc}{\defcounter {refsection}{0}\relax }\@writefile{toc}{\contentsline {subsection}{\numberline {5.2}Basics}{19}{subsection.5.2}\protected@file@percent }
\newlabel{ssec:powerlineBasics}{{5.2}{19}{Basics}{subsection.5.2}{}}
\@writefile{lof}{\defcounter {refsection}{0}\relax }\@writefile{lof}{\contentsline {figure}{\numberline {12}{\ignorespaces Example of how such a system might be set up.\cite {PLCPicture}}}{19}{figure.12}\protected@file@percent }
\newlabel{fig:PCLPicture}{{12}{19}{Example of how such a system might be set up.\cite {PLCPicture}}{figure.12}{}}
\abx@aux@cite{wikiOrthogonalFreqDivMod}
\abx@aux@segm{0}{0}{wikiOrthogonalFreqDivMod}
\abx@aux@segm{0}{0}{wiki_Ghn}
\abx@aux@cite{How_OFDM_Subcarriers_Work}
\abx@aux@segm{0}{0}{How_OFDM_Subcarriers_Work}
\@writefile{lof}{\defcounter {refsection}{0}\relax }\@writefile{lof}{\contentsline {figure}{\numberline {13}{\ignorespaces Comtrend PG9072-TN (Wifi Powerline-adapter) \cite {telenetPowerLineAdapter}}}{20}{figure.13}\protected@file@percent }
\newlabel{fig:ComtrendPG9072}{{13}{20}{Comtrend PG9072-TN (Wifi Powerline-adapter) \cite {telenetPowerLineAdapter}}{figure.13}{}}
\@writefile{toc}{\defcounter {refsection}{0}\relax }\@writefile{toc}{\contentsline {subsection}{\numberline {5.3}Challenges}{20}{subsection.5.3}\protected@file@percent }
\newlabel{ssec:challenges}{{5.3}{20}{Challenges}{subsection.5.3}{}}
\@writefile{toc}{\defcounter {refsection}{0}\relax }\@writefile{toc}{\contentsline {subsection}{\numberline {5.4}Signal Modulation Techniques}{20}{subsection.5.4}\protected@file@percent }
\newlabel{ssec:signalModulationTechniques}{{5.4}{20}{Signal Modulation Techniques}{subsection.5.4}{}}
\@writefile{toc}{\defcounter {refsection}{0}\relax }\@writefile{toc}{\contentsline {subsubsection}{\numberline {5.4.1}Orthogonal frequency-division multiplexing (OFDM)}{20}{subsubsection.5.4.1}\protected@file@percent }
\newlabel{sssec:orthogonalFreqDivMul}{{5.4.1}{20}{Orthogonal frequency-division multiplexing (OFDM)}{subsubsection.5.4.1}{}}
\abx@aux@cite{wiki_multiplexing}
\abx@aux@segm{0}{0}{wiki_multiplexing}
\abx@aux@cite{electronicNotesQAM}
\abx@aux@segm{0}{0}{electronicNotesQAM}
\@writefile{lof}{\defcounter {refsection}{0}\relax }\@writefile{lof}{\contentsline {figure}{\numberline {14}{\ignorespaces Example of different signals overlapping each other in a OFDM system.\cite {How_OFDM_Subcarriers_Work}}}{21}{figure.14}\protected@file@percent }
\newlabel{fig:ofdm-subcarriers}{{14}{21}{Example of different signals overlapping each other in a OFDM system.\cite {How_OFDM_Subcarriers_Work}}{figure.14}{}}
\@writefile{lof}{\defcounter {refsection}{0}\relax }\@writefile{lof}{\contentsline {figure}{\numberline {15}{\ignorespaces Example of how frequency multiplexing works in a FDM system.\cite {wiki_multiplexing}}}{21}{figure.15}\protected@file@percent }
\newlabel{fig:wiki-multiplexing}{{15}{21}{Example of how frequency multiplexing works in a FDM system.\cite {wiki_multiplexing}}{figure.15}{}}
\@writefile{toc}{\defcounter {refsection}{0}\relax }\@writefile{toc}{\contentsline {subsubsection}{\numberline {5.4.2}Quadrature amplitude modulation (QAM)}{21}{subsubsection.5.4.2}\protected@file@percent }
\newlabel{sssec:QAM}{{5.4.2}{21}{Quadrature amplitude modulation (QAM)}{subsubsection.5.4.2}{}}
\abx@aux@cite{ch_05}
\abx@aux@segm{0}{0}{ch_05}
\@writefile{lof}{\defcounter {refsection}{0}\relax }\@writefile{lof}{\contentsline {figure}{\numberline {16}{\ignorespaces Digital 16-QAM with example constellation points.\cite {electronicNotesQAM}}}{22}{figure.16}\protected@file@percent }
\newlabel{fig:16QAM}{{16}{22}{Digital 16-QAM with example constellation points.\cite {electronicNotesQAM}}{figure.16}{}}
\abx@aux@cite{wiki_LDPC}
\abx@aux@segm{0}{0}{wiki_LDPC}
\abx@aux@segm{0}{0}{wiki_LDPC}
\abx@aux@segm{0}{0}{wiki_LDPC}
\@writefile{lof}{\defcounter {refsection}{0}\relax }\@writefile{lof}{\contentsline {figure}{\numberline {17}{\ignorespaces Example of 8-QAM in the time domain\cite {ch_05}}}{23}{figure.17}\protected@file@percent }
\newlabel{fig:QAMTime}{{17}{23}{Example of 8-QAM in the time domain\cite {ch_05}}{figure.17}{}}
\@writefile{toc}{\defcounter {refsection}{0}\relax }\@writefile{toc}{\contentsline {subsection}{\numberline {5.5}Error checking}{23}{subsection.5.5}\protected@file@percent }
\newlabel{ssec:PLCErrorChecking}{{5.5}{23}{Error checking}{subsection.5.5}{}}
\@writefile{toc}{\defcounter {refsection}{0}\relax }\@writefile{toc}{\contentsline {subsubsection}{\numberline {5.5.1}Low-density parity-check code (LDPC)}{23}{subsubsection.5.5.1}\protected@file@percent }
\newlabel{sssec:LDPC}{{5.5.1}{23}{Low-density parity-check code (LDPC)}{subsubsection.5.5.1}{}}
\abx@aux@segm{0}{0}{wiki_LDPC}
\abx@aux@cite{mediumLDPC}
\abx@aux@segm{0}{0}{mediumLDPC}
\@writefile{lof}{\defcounter {refsection}{0}\relax }\@writefile{lof}{\contentsline {figure}{\numberline {18}{\ignorespaces A graph fragment of an example LDPC code using Forney's factor graph notation.\cite {wiki_LDPC}}}{24}{figure.18}\protected@file@percent }
\newlabel{fig:LDPC_fragment}{{18}{24}{A graph fragment of an example LDPC code using Forney's factor graph notation.\cite {wiki_LDPC}}{figure.18}{}}
\abx@aux@segm{0}{0}{mediumLDPC}
\abx@aux@segm{0}{0}{mediumLDPC}
\@writefile{lof}{\defcounter {refsection}{0}\relax }\@writefile{lof}{\contentsline {figure}{\numberline {19}{\ignorespaces A Tanner representation of the 7 bits.\cite {mediumLDPC}}}{25}{figure.19}\protected@file@percent }
\newlabel{fig:tannerGraphEmpty}{{19}{25}{A Tanner representation of the 7 bits.\cite {mediumLDPC}}{figure.19}{}}
\@writefile{lof}{\defcounter {refsection}{0}\relax }\@writefile{lof}{\contentsline {figure}{\numberline {20}{\ignorespaces A Tanner representation of the assigned 7 bits.\cite {mediumLDPC}}}{25}{figure.20}\protected@file@percent }
\newlabel{fig:tannerGraphFilled}{{20}{25}{A Tanner representation of the assigned 7 bits.\cite {mediumLDPC}}{figure.20}{}}
\abx@aux@segm{0}{0}{mediumLDPC}
\@writefile{lof}{\defcounter {refsection}{0}\relax }\@writefile{lof}{\contentsline {figure}{\numberline {21}{\ignorespaces A Tanner representation of the assigned 7 bits with a error on bit b3.\cite {mediumLDPC}}}{26}{figure.21}\protected@file@percent }
\newlabel{fig:tannerGraphError}{{21}{26}{A Tanner representation of the assigned 7 bits with a error on bit b3.\cite {mediumLDPC}}{figure.21}{}}
\@writefile{lof}{\defcounter {refsection}{0}\relax }\@writefile{lof}{\contentsline {figure}{\numberline {22}{\ignorespaces A Tanner representation of the assigned 7 bits with a fixed error on bit b3.\cite {mediumLDPC}}}{26}{figure.22}\protected@file@percent }
\newlabel{fig:tannerGraphFixed}{{22}{26}{A Tanner representation of the assigned 7 bits with a fixed error on bit b3.\cite {mediumLDPC}}{figure.22}{}}
\@writefile{toc}{\defcounter {refsection}{0}\relax }\@writefile{toc}{\contentsline {subsection}{\numberline {5.6}Power-line communications conclusion}{26}{subsection.5.6}\protected@file@percent }
\newlabel{ssec:powerLineComConclusion}{{5.6}{26}{Power-line communications conclusion}{subsection.5.6}{}}
\abx@aux@cite{wikiKNX}
\abx@aux@segm{0}{0}{wikiKNX}
\abx@aux@segm{0}{0}{wikiKNX}
\abx@aux@cite{KNXdocs}
\abx@aux@segm{0}{0}{KNXdocs}
\abx@aux@segm{0}{0}{KNXdocs}
\abx@aux@segm{0}{0}{KNXdocs}
\@writefile{toc}{\defcounter {refsection}{0}\relax }\@writefile{toc}{\contentsline {section}{\numberline {6}KNX}{27}{section.6}\protected@file@percent }
\newlabel{sec:KNX}{{6}{27}{KNX}{section.6}{}}
\@writefile{toc}{\defcounter {refsection}{0}\relax }\@writefile{toc}{\contentsline {subsection}{\numberline {6.1}Background}{27}{subsection.6.1}\protected@file@percent }
\newlabel{ssec:knxBackground}{{6.1}{27}{Background}{subsection.6.1}{}}
\@writefile{toc}{\defcounter {refsection}{0}\relax }\@writefile{toc}{\contentsline {subsection}{\numberline {6.2}Medium Attachment Unit (MAU)}{27}{subsection.6.2}\protected@file@percent }
\newlabel{ssec:knxMAU}{{6.2}{27}{Medium Attachment Unit (MAU)}{subsection.6.2}{}}
\@writefile{lof}{\defcounter {refsection}{0}\relax }\@writefile{lof}{\contentsline {figure}{\numberline {23}{\ignorespaces Structure of the MAU (Example)\cite {KNXdocs}}}{27}{figure.23}\protected@file@percent }
\newlabel{fig:KNXStructOfMAU}{{23}{27}{Structure of the MAU (Example)\cite {KNXdocs}}{figure.23}{}}
\abx@aux@segm{0}{0}{KNXdocs}
\abx@aux@segm{0}{0}{KNXdocs}
\abx@aux@segm{0}{0}{KNXdocs}
\abx@aux@segm{0}{0}{KNXdocs}
\@writefile{toc}{\defcounter {refsection}{0}\relax }\@writefile{toc}{\contentsline {subsubsection}{\numberline {6.2.1}Signal encoding}{28}{subsubsection.6.2.1}\protected@file@percent }
\newlabel{sssec:knxMAUSignalEncoding}{{6.2.1}{28}{Signal encoding}{subsubsection.6.2.1}{}}
\@writefile{lof}{\defcounter {refsection}{0}\relax }\@writefile{lof}{\contentsline {figure}{\numberline {24}{\ignorespaces Signal encoding\cite {KNXdocs}}}{28}{figure.24}\protected@file@percent }
\newlabel{fig:KNXSignalEncoding}{{24}{28}{Signal encoding\cite {KNXdocs}}{figure.24}{}}
\@writefile{toc}{\defcounter {refsection}{0}\relax }\@writefile{toc}{\contentsline {subsubsection}{\numberline {6.2.2}Overlapping of logical "0" or "1"}{28}{subsubsection.6.2.2}\protected@file@percent }
\newlabel{sssec:overlapping_of_logical_0_or_1_1}{{6.2.2}{28}{Overlapping of logical "0" or "1"}{subsubsection.6.2.2}{}}
\@writefile{lof}{\defcounter {refsection}{0}\relax }\@writefile{lof}{\contentsline {figure}{\numberline {25}{\ignorespaces Idealized overlapping of 105,4 kHz and 115,2 kHz\cite {KNXdocs}}}{28}{figure.25}\protected@file@percent }
\newlabel{fig:idealised_overlapping}{{25}{28}{Idealized overlapping of 105,4 kHz and 115,2 kHz\cite {KNXdocs}}{figure.25}{}}
\@writefile{toc}{\defcounter {refsection}{0}\relax }\@writefile{toc}{\contentsline {subsection}{\numberline {6.3}PL110 character overview}{28}{subsection.6.3}\protected@file@percent }
\newlabel{ssec:PL110_character_overview}{{6.3}{28}{PL110 character overview}{subsection.6.3}{}}
\abx@aux@segm{0}{0}{KNXdocs}
\abx@aux@segm{0}{0}{KNXdocs}
\@writefile{lof}{\defcounter {refsection}{0}\relax }\@writefile{lof}{\contentsline {figure}{\numberline {26}{\ignorespaces Character\cite {KNXdocs}}}{29}{figure.26}\protected@file@percent }
\newlabel{fig:knx_character}{{26}{29}{Character\cite {KNXdocs}}{figure.26}{}}
\@writefile{toc}{\defcounter {refsection}{0}\relax }\@writefile{toc}{\contentsline {subsubsection}{\numberline {6.3.1}Frame structure}{29}{subsubsection.6.3.1}\protected@file@percent }
\newlabel{ssec:Frame_structure}{{6.3.1}{29}{Frame structure}{subsubsection.6.3.1}{}}
\@writefile{lof}{\defcounter {refsection}{0}\relax }\@writefile{lof}{\contentsline {figure}{\numberline {27}{\ignorespaces Structure of an Acknowledge Frame\cite {KNXdocs}}}{29}{figure.27}\protected@file@percent }
\newlabel{fig:Acknowledge Frame}{{27}{29}{Structure of an Acknowledge Frame\cite {KNXdocs}}{figure.27}{}}
\@writefile{toc}{\defcounter {refsection}{0}\relax }\@writefile{toc}{\contentsline {subsection}{\numberline {6.4}Faulty transmission detection}{29}{subsection.6.4}\protected@file@percent }
\newlabel{ssec:faulty}{{6.4}{29}{Faulty transmission detection}{subsection.6.4}{}}
\abx@aux@segm{0}{0}{KNXdocs}
\abx@aux@segm{0}{0}{KNXdocs}
\@writefile{lof}{\defcounter {refsection}{0}\relax }\@writefile{lof}{\contentsline {figure}{\numberline {28}{\ignorespaces Table of syndromes related to errors\cite {KNXdocs}}}{30}{figure.28}\protected@file@percent }
\newlabel{fig:error_syndromes}{{28}{30}{Table of syndromes related to errors\cite {KNXdocs}}{figure.28}{}}
\@writefile{toc}{\defcounter {refsection}{0}\relax }\@writefile{toc}{\contentsline {subsection}{\numberline {6.5}KNX Conclusion}{30}{subsection.6.5}\protected@file@percent }
\newlabel{ssec:KNX_Conclusion}{{6.5}{30}{KNX Conclusion}{subsection.6.5}{}}
\@writefile{toc}{\defcounter {refsection}{0}\relax }\@writefile{toc}{\contentsline {section}{\numberline {7}Final conclusion}{31}{section.7}\protected@file@percent }
\newlabel{sec:finalConclusion}{{7}{31}{Final conclusion}{section.7}{}}
\abx@aux@refcontextdefaultsdone
\abx@aux@defaultrefcontext{0}{fwjaycar}{none/global//global/global}
\abx@aux@defaultrefcontext{0}{fwSpec}{none/global//global/global}
\abx@aux@defaultrefcontext{0}{fwlinux}{none/global//global/global}
\abx@aux@defaultrefcontext{0}{nubusMac}{none/global//global/global}
\abx@aux@defaultrefcontext{0}{ieeeNubus}{none/global//global/global}
\abx@aux@defaultrefcontext{0}{nubusSpec}{none/global//global/global}
\abx@aux@defaultrefcontext{0}{pc104Spec}{none/global//global/global}
\abx@aux@defaultrefcontext{0}{ISAEISA}{none/global//global/global}
\abx@aux@defaultrefcontext{0}{isaHWB}{none/global//global/global}
\abx@aux@defaultrefcontext{0}{pc104Tim}{none/global//global/global}
\abx@aux@defaultrefcontext{0}{wikiPowerLineCom}{none/global//global/global}
\abx@aux@defaultrefcontext{0}{wiki_HomePlug}{none/global//global/global}
\abx@aux@defaultrefcontext{0}{wiki_IEEE1901}{none/global//global/global}
\abx@aux@defaultrefcontext{0}{wiki_Ghn}{none/global//global/global}
\abx@aux@defaultrefcontext{0}{linusTechTips}{none/global//global/global}
\abx@aux@defaultrefcontext{0}{PLCPicture}{none/global//global/global}
\abx@aux@defaultrefcontext{0}{telenetPowerLineAdapter}{none/global//global/global}
\abx@aux@defaultrefcontext{0}{wikiOrthogonalFreqDivMod}{none/global//global/global}
\abx@aux@defaultrefcontext{0}{How_OFDM_Subcarriers_Work}{none/global//global/global}
\abx@aux@defaultrefcontext{0}{wiki_multiplexing}{none/global//global/global}
\abx@aux@defaultrefcontext{0}{electronicNotesQAM}{none/global//global/global}
\abx@aux@defaultrefcontext{0}{ch_05}{none/global//global/global}
\abx@aux@defaultrefcontext{0}{wiki_LDPC}{none/global//global/global}
\abx@aux@defaultrefcontext{0}{mediumLDPC}{none/global//global/global}
\abx@aux@defaultrefcontext{0}{wikiKNX}{none/global//global/global}
\abx@aux@defaultrefcontext{0}{KNXdocs}{none/global//global/global}
