[0] Config.pm:304> INFO - This is Biber 2.12
[1] Config.pm:307> INFO - Logfile is 'build/resProtocol.blg'
[31] biber:315> INFO - === Thu Jan  3, 2019, 19:16:14
[53] Biber.pm:371> INFO - Reading 'build/resProtocol.bcf'
[131] Biber.pm:889> INFO - Found 26 citekeys in bib section 0
[147] Biber.pm:4093> INFO - Processing section 0
[158] Biber.pm:4254> INFO - Looking for bibtex format file './bib/resProtocol.bib' for section 0
[159] bibtex.pm:1512> INFO - LaTeX decoding ...
[181] bibtex.pm:1329> INFO - Found BibTeX data source './bib/resProtocol.bib'
[236] UCollate.pm:68> INFO - Overriding locale 'en-US' defaults 'normalization = NFD' with 'normalization = prenormalized'
[236] UCollate.pm:68> INFO - Overriding locale 'en-US' defaults 'variable = shifted' with 'variable = non-ignorable'
[236] Biber.pm:3921> INFO - Sorting list 'none/global//global/global' of type 'entry' with template 'none' and locale 'en-US'
[236] Biber.pm:3927> INFO - No sort tailoring available for locale 'en-US'
[254] bbl.pm:636> INFO - Writing 'build/resProtocol.bbl' with encoding 'UTF-8'
[259] bbl.pm:739> INFO - Output to build/resProtocol.bbl
